-0.00105415,-0.0154923,-0.0570804,0.0124561,-0.0711744,0.0229824,0.0357804,-0.0467304,-0.222516,-0.0319065,0.0349414,0.0678498,0.0218412,0.00397952,0.133806,0.0503265,-0.023566,-0.00916351,0.0160975,0.108581,0.0259611,0.0126196,0.20859,0.0445803,0.00196421,-0.210377,0.171536,0.0654363,0.0203122,-0.0187102,-0.0354719,-0.0917143,0.380651,-0.298799,0.306514,-0.28405,0.276263
0.00262649,0.00913573,0.0618933,-0.00350596,0.0575079,-0.0269813,-0.0125788,0.0374358,0.213537,0.00938173,-0.026851,-0.0854687,0.0390038,0.0279008,0.0153951,-0.174713,-0.110114,-0.0244383,0.0344181,-0.0101442,-0.107667,-0.102875,0.0969021,-0.0057651,-0.00305463,0.0383544,0.184435,-0.0935371,0.101614,0.000243005,0.214937,0.181655,-0.0751707,0.225029,-0.286717,-0.722964,-0.0374522
0.00262738,0.00598015,0.0578083,-0.00821386,0.0601854,-0.0178337,-0.0179577,0.0396085,0.176281,0.0202462,-0.0217963,-0.0432275,-0.0721016,-0.00289289,-0.017315,0.130812,0.0977587,0.0283982,0.0201269,-0.155973,-0.0246339,-0.00720661,0.0225733,-0.153467,-0.0137631,-0.130321,0.0857854,0.0224729,0.0391798,-0.115148,0.195308,0.00514095,-0.519845,0.0427074,-0.0012946,0.236799,0.00245139
0.270289,-0.0784764,-0.253591,0.0385948,0.0582327,0.0127294,-0.0555636,0.00150665,-0.0107853,0.00604464,-0.0516098,-0.12998,-0.150342,-0.037375,-0.033443,-0.0796914,0.0469777,-0.019288,0.00168116,-0.0223711,-0.0749581,0.0386974,-0.0457811,-0.0318855,0.0135776,0.0261237,-0.0514005,-0.0236806,-0.0215778,0.0343643,-0.0377415,0.0426811,-0.0081687,0.00125233,-0.0482701,0.0735377,-0.0586482
0.226904,-0.0684285,0.0730473,0.0327352,0.0897426,0.0321264,0.0362134,-0.0480332,-0.0168398,-0.0379242,-0.0176136,0.00558237,0.2927,-0.10772,-0.1339,0.146663,-0.0983441,-0.000883279,-0.0219067,-0.0563055,0.0737818,0.0713338,0.0422602,0.0610213,-0.0271268,0.0160321,0.0359054,-0.00424707,-0.00395991,0.02576,-0.088522,-0.00855593,-0.0207436,-0.0126524,0.0128214,0.0924827,0.0411351
0.188172,-0.0594692,0.138517,0.010339,0.0413117,-0.0570613,-0.0113874,0.186309,-0.0547636,0.118321,0.0025774,0.249083,-0.0203616,0.264865,-0.0522117,-0.065324,0.000870853,0.0579051,-0.0650461,0.0596455,-0.0796847,-0.0634282,-0.0590519,0.0546174,-0.0419145,-0.0656637,-0.0318266,-0.0243092,-0.0335972,0.0289261,-0.0528017,0.0228657,0.0112876,0.00373753,-0.0310108,0.00159117,-0.102802
0.254713,-0.077247,-0.24256,0.0459096,0.0605956,0.0203933,-0.0524422,-0.00614271,-0.0173328,0.0124826,-0.0527208,-0.136249,-0.158419,-0.043516,-0.0152184,-0.0824233,0.0339215,-0.00595795,0.00780004,-0.072712,-0.0796059,0.00922868,-0.0636919,0.0619129,0.106188,-0.0618833,0.00315573,0.0104788,0.00680416,0.085705,-0.101406,-0.010623,-0.0365499,0.0671056,-0.0153084,0.0359464,-0.0442535
0.211866,-0.0675593,0.0983942,0.0403894,0.0923726,0.0409859,0.029951,-0.0545575,-0.0195044,-0.0389593,-0.0176009,0.000119219,0.299799,-0.122447,-0.12868,0.141871,-0.089857,-0.00194685,-0.0129893,-0.0803301,-0.0172268,0.0911487,0.146743,0.0888039,-0.0376343,-0.00535039,-0.128153,0.103455,-0.0272205,0.0381607,-0.0717569,-0.0207492,-0.0492878,-0.0495178,-0.00606289,0.0355974,0.0343157
0.157404,-0.0522723,0.14063,0.0125231,0.0384031,-0.0392646,-0.0106452,0.145565,-0.0490939,0.100265,0.00765015,0.206662,-0.0161125,0.24243,-0.0443286,-0.067375,0.00333265,0.0605257,-0.0512863,0.0173189,-0.0812575,-0.0162755,-0.0118699,0.050677,-0.012172,-0.121733,-0.0834153,-0.205697,-0.029719,-0.0187261,-0.0759355,-0.00256575,0.0220175,-0.0107194,-0.0748508,0.0010587,-0.0330064
0.29722,-0.073351,-0.346116,0.0010466,-0.0085621,-0.0124175,-0.0198002,0.0214989,-0.133309,-0.0313871,-0.0237002,-0.0337538,-0.0870698,0.0103511,-0.0230392,0.0102076,0.063295,-0.0719507,-0.0335385,0.445995,-0.0262041,0.177373,0.309448,-0.439085,-0.286993,0.0222898,-0.0512107,-0.0966902,-0.0211163,-0.0114646,0.0430488,-0.0191959,-0.0868092,0.150418,0.0485872,-0.0557036,-0.00895405
0.159297,-0.0372458,0.0877612,-0.00796167,0.110393,-0.0137778,-0.00113748,0.0185011,0.165496,0.00367118,-0.0319916,-0.0746179,0.172941,-0.0536789,-0.0759234,-0.0571132,-0.182104,-0.0547211,0.00904166,-0.0637557,-0.198325,-0.0761953,0.125133,0.00540691,-0.174873,0.337154,0.612999,-0.263979,0.0375826,0.0504913,-0.193388,-0.0662773,0.00375688,-0.159697,0.108559,0.148785,-0.0200403
0.151694,-0.0381626,0.0941063,-0.0203979,0.109279,-0.0241857,-0.0281187,0.136331,0.116457,0.0594612,-0.0105692,0.102414,-0.0201659,0.241669,-0.0599244,0.10492,0.0949408,0.0674323,-0.016769,-0.21832,-0.0529536,-0.10256,-0.213215,-0.366883,-0.308992,-0.240975,0.206128,0.503696,0.00517783,0.0843262,-0.0597641,-0.00356404,0.185189,0.00795752,-0.0457636,-0.042119,0.04654
-0.184389,0.0455427,0.0773946,-0.0096435,-0.0945002,0.0185287,0.0314207,-0.0143318,-0.137723,-0.00976202,0.0449357,0.100993,0.0519419,0.00135525,0.104233,0.0457511,-0.000476931,-0.00765478,-0.0266652,0.267718,0.0251102,0.14213,0.287418,0.132259,0.0742518,-0.467251,0.375086,0.121979,0.193858,0.167525,-0.186471,-0.0124874,-0.265243,0.105053,-0.202068,0.119412,-0.154533
-0.202326,0.0538704,0.108178,-0.0151626,-0.0173843,-0.0089624,-0.0622356,0.0273735,0.144121,0.0366665,-0.00360322,-0.0782794,-0.186919,0.0540469,0.123318,-0.28055,0.00481313,-0.0398967,0.0712383,-0.0360326,-0.609799,-0.0460859,0.405734,0.0733071,-0.107388,0.0479044,-0.172898,0.207114,-0.0407996,-0.0382826,-0.0232896,-0.0938743,0.0997122,0.0574782,0.0960365,0.20359,0.044861
-0.150608,0.0421695,0.0282629,-0.0181455,0.0287957,0.0917673,-0.0184553,-0.174614,0.149532,-0.110519,0.0167805,-0.23144,0.0243333,-0.111384,0.0437716,0.102001,0.117874,0.0150882,0.0982198,-0.399352,-0.0480848,0.236713,0.0583641,-0.307739,-0.117551,-0.402864,-0.0436659,-0.380916,-0.0191077,-0.00884973,-0.0389526,-0.0614471,0.102683,-0.0440613,0.068136,-0.0736462,-0.0164118
0.224394,-0.0925026,0.0742305,0.085814,0.102474,0.0383514,-0.0500305,-0.016884,-0.0639074,0.0440805,-0.0203265,-0.00418048,-0.0268316,-0.00643208,-0.0131408,-0.0492547,0.016934,0.0200998,0.0102667,-0.0159433,-0.00385326,-0.00191747,0.0616433,0.0282644,0.072991,-0.081333,-0.00436866,-0.0176827,0.0696903,-0.0318912,0.146975,0.00397607,0.0856651,0.156077,0.243726,0.0732962,-0.0633944
0.132384,-0.0634603,-0.134658,0.127005,0.0823048,0.058414,-0.113187,-0.045497,-0.0735015,0.0514773,-0.0748909,-0.15199,-0.200242,-0.0862522,0.00400029,-0.133383,0.0369897,-0.00389072,0.000297688,-0.0565727,0.0456385,0.00193838,0.0845181,0.165846,0.0024877,-0.153544,0.18722,0.0903909,-0.115314,-0.222342,0.259472,0.196986,0.0705439,-0.499508,-0.424061,0.124923,0.0337058
0.0733081,-0.0497701,0.152199,0.0965821,0.102105,0.0660535,-0.0390989,-0.0676485,-0.0289014,0.0141647,-0.0247795,-0.0307687,0.161202,-0.161382,-0.0845455,0.0651649,-0.0326049,-0.0105712,0.0249088,0.109243,-0.0615564,-0.076928,0.0129978,0.040865,0.114031,-0.16641,0.0984292,-0.0187713,0.0984431,-0.168009,0.408626,0.129435,0.406566,0.468869,0.00355011,0.239553,0.00715036
0.051912,-0.0376609,0.140496,0.0616809,0.0619269,-0.000437411,-0.0435347,0.064886,-0.0526098,0.102662,-0.0243228,0.107751,-0.052987,0.160576,-0.0317292,-0.0867668,0.0272706,0.0739539,-0.0389451,-0.0991153,0.0971569,0.069368,0.157764,-0.0218143,0.154225,-0.00783308,0.0708479,0.00758607,0.0687767,-0.225269,0.336066,0.0136127,-0.319808,-0.188723,0.528055,-0.130667,-0.0362591
0.220172,-0.0733733,-0.207666,0.0567522,0.0651868,0.0341307,-0.0369338,-0.0263067,-0.037851,0.0255026,-0.056046,-0.139415,-0.153316,-0.0549504,0.0226703,-0.0791857,-0.00707634,0.0238236,0.0291576,-0.216147,-0.106648,-0.0764946,-0.092343,0.258828,0.308252,-0.216438,0.0881443,0.0785177,0.0299926,0.163818,-0.238584,-0.199357,-0.0829218,0.211499,0.193172,-0.167849,-0.0193344
0.162357,-0.0569606,0.12494,0.0459796,0.0904828,0.0505909,0.0119329,-0.0507837,-0.0161489,-0.0335227,-0.0199068,-0.00517491,0.273905,-0.132034,-0.112278,0.126368,-0.060298,-0.00534441,0.000847403,-0.0951015,-0.151809,0.0990363,0.283032,0.104079,-0.0433569,-0.0149444,-0.370207,0.267299,-0.0433481,0.0732694,0.0154341,-0.00879429,-0.149905,-0.123717,-0.138657,-0.218928,-0.0434191
0.12336,-0.0457919,0.150029,0.018957,0.0400045,-0.0151776,-0.0128414,0.0906469,-0.0458272,0.0781338,0.017481,0.156132,-0.00846873,0.222248,-0.0366197,-0.0792543,0.00276257,0.073127,-0.0418885,-0.0476974,-0.0829087,0.0463709,0.0678503,0.0576903,0.0392095,-0.213622,-0.171642,-0.495155,-0.0158713,-0.113973,-0.139805,-0.0662163,0.0482031,-0.0279189,-0.225058,0.0432929,0.179328
0.192577,-0.131049,-0.0371871,-0.123012,-0.170208,-0.0596452,0.240594,-0.139318,-0.357317,-0.172522,0.153459,0.101705,0.128886,0.106634,0.528224,0.141825,-0.0522793,-0.0205824,0.199076,-0.217834,-0.258192,-0.160797,-0.0489953,-0.151191,0.130488,0.108355,0.0549678,-0.0204104,-0.0277271,-0.088249,0.12802,0.0410083,-0.0924246,0.0121863,-0.122466,0.0425076,-0.0540922
0.236467,-0.00546492,0.100415,-0.138602,0.0253915,-0.148833,0.125325,-0.0120859,0.403368,-0.152778,0.0200916,-0.185488,0.13277,0.11962,0.378067,-0.38514,-0.295611,-0.0926482,0.0537854,0.139437,0.344238,0.0422361,-0.0130042,0.000386865,-0.00470327,-0.187877,-0.139456,0.0830341,0.00238434,0.0221132,0.00965227,-0.0321503,0.0205399,-0.0495532,0.058825,0.131591,0.0205003
0.192574,-0.0125378,0.128419,-0.104549,0.0377527,-0.18609,0.0827942,0.144108,0.376599,0.00369932,0.014564,-0.0379143,-0.327237,-0.0704599,0.220738,0.610321,0.233024,0.0229045,0.0340738,0.144618,0.0291769,-0.0520972,0.162174,0.220653,0.0560428,0.0629309,-0.00805813,-0.0622184,0.00339546,-0.0137137,-0.0117097,0.00731253,0.10243,-0.0329642,0.00727403,-0.0554908,0.00260497
-0.145129,0.114651,-0.0618413,0.201068,0.23044,-0.0211341,-0.143659,0.222371,-0.0760286,-0.0648109,-0.192195,-0.0407029,0.0790593,-0.0544313,0.230181,0.10591,-0.226194,0.318215,-0.136684,0.023575,0.0909888,-0.218875,0.127053,-0.109004,0.0484775,-0.0385505,0.0282762,-0.026847,-0.522853,-0.0192027,0.0307472,-0.250958,0.0214393,0.041969,-0.0262147,-0.0121655,-0.229551
0.084751,-0.0437213,0.0452057,-0.158662,-0.219279,0.0821508,0.064804,-0.222022,0.0904865,0.184455,0.154171,0.0625696,-0.0295345,0.0308731,-0.22332,-0.041437,0.0907971,-0.245317,0.0968502,0.00534106,0.0962942,-0.120084,0.0757768,-0.00587277,0.0208985,-0.0246937,0.0256031,0.02627,-0.119395,-0.103688,0.126827,-0.476313,0.126685,-0.106073,-0.0827177,-0.0413772,-0.480328
-0.0538534,0.057335,-0.00663123,0.117258,0.232704,-0.195085,0.0442396,0.253483,-0.140439,-0.399562,-0.0935461,-0.0440403,-0.0207111,-0.00135273,0.0301073,-0.0180251,0.0300991,0.0253756,-0.0347431,-0.0070892,-0.0974726,0.222048,-0.145373,0.0664152,-0.0870797,0.0651839,-0.0595963,0.011411,0.526092,-0.0900403,0.0962121,-0.253286,0.118493,-0.153905,-0.058656,-0.0137574,-0.297494
0.0442415,-0.0107945,-0.132058,-0.0537286,-0.167663,0.249795,-0.19239,-0.130069,0.158401,0.484519,-0.029732,0.0380377,0.0979316,-0.0661721,0.303773,0.0887022,-0.195386,0.429073,-0.163398,0.0406788,-0.100266,0.173288,-0.117742,-0.00424762,-0.0745132,0.0611045,-0.0634446,0.00837885,0.330656,-0.0359492,0.0334495,-0.0557294,0.0478888,-0.0792317,-0.0234522,0.00233254,-0.0979065
-0.104376,-0.0113807,-0.164818,0.156981,0.201298,-0.00479141,-0.0358069,0.183582,0.00150387,0.252341,0.210681,-0.0557473,0.0930433,0.109734,-0.0369285,0.0775504,-0.0745836,-0.0320452,0.485782,0.0214947,0.0759005,-0.180723,0.0868921,-0.0787963,0.0752953,5.71838e-05,-0.0913497,-0.108861,0.193499,0.422996,0.193866,-0.146045,0.0224817,-0.110871,-0.0443996,0.0706659,-0.0216531
0.0790105,-0.00528327,0.079227,-0.10766,-0.184898,0.0768491,0.00226506,-0.124879,0.0229711,-0.220021,-0.299673,0.0991516,-0.131019,-0.0513092,-0.0490057,-0.000404887,-0.0650264,-0.00598366,-0.354388,-0.0502003,0.00898703,-0.177377,0.0352789,-0.0781708,0.0294436,-0.00355626,-0.0088794,-0.0737694,0.122497,0.119152,0.133431,-0.316404,-0.003456,0.0328811,-0.0831948,-0.00749712,-0.024392
-0.0255087,0.0103417,-0.0658804,0.0361094,0.170618,-0.152297,0.0887022,0.0626638,-0.0212362,0.165004,0.452923,-0.121298,0.0785295,-0.0444929,0.0332094,-0.0180681,0.0295062,0.00332071,-0.0697386,0.0220402,-0.0297514,0.258181,-0.121754,0.0922914,-0.0586752,0.0221372,0.0934709,0.0746138,-0.138947,-0.449995,-0.113838,-0.256211,-0.0345253,0.181954,-0.047139,-0.0934516,-0.0159623
-0.00126651,-0.0196715,-0.0146572,0.0143348,-0.137173,0.202773,-0.156138,0.0394965,0.0614453,-0.091392,-0.497718,0.107374,0.0456588,0.166685,0.00717417,0.0792869,-0.0379405,-0.0300766,0.605465,0.0748357,0.0255409,0.218083,-0.0922629,0.11613,-0.0534195,0.0376976,0.0533787,0.0497505,-0.0870057,-0.29163,-0.109239,-0.0975162,-0.0248416,0.101896,-0.0147101,-0.0470092,-0.00969213
-0.0994216,-0.00670653,-0.1956,0.171651,0.231694,-0.00193473,-0.0522947,-0.123947,0.0825209,0.157492,-0.186409,0.0854344,0.16611,0.0916233,0.145992,0.064244,0.108585,-0.364774,-0.15254,-0.0492835,0.117426,-0.347997,0.130943,-0.100921,0.085711,0.0243584,-0.0791573,0.0398738,0.285889,-0.327552,-0.19599,-0.152522,-0.0490461,0.0266122,-0.0955522,0.0134854,0.246394
0.0767439,-0.00933444,0.086668,-0.127038,-0.207708,0.057806,0.0141789,0.196272,-0.0787777,-0.103915,0.143962,-0.197795,-0.108623,-0.0889566,-0.21082,-0.0104605,-0.151466,0.308384,0.129519,0.0329574,0.0623732,-0.137251,0.0324197,-0.0515185,0.020217,0.0201068,0.0218716,0.0678542,0.116921,-0.116741,0.079955,-0.371318,-0.106565,0.0448149,-0.14615,0.0170435,0.509207
-0.043318,0.0172563,-0.119574,0.066795,0.24922,-0.18154,0.117677,-0.352894,0.119916,0.0184242,-0.0902286,0.331009,-0.0327176,0.0412354,0.0554116,-0.0170884,0.0290248,-0.00670694,-0.012234,0.0522507,-0.11894,0.291083,-0.153016,0.146355,-0.0750264,0.0251315,0.0995919,-0.00691902,-0.188004,0.264621,0.330634,-0.291472,-0.0662957,0.0313272,-0.0646668,0.00701724,0.323128
0.0259484,-0.0350058,0.0798331,-0.00174697,-0.207256,0.248267,-0.200346,0.437395,-0.06933,0.0919418,-0.0296957,-0.220447,0.211049,0.0524156,0.232448,0.0289099,0.213298,-0.428604,-0.223947,-0.0379512,-0.040509,0.188525,-0.119978,0.104539,-0.0317589,0.0334772,0.0485285,-0.0306607,-0.127343,0.19309,0.207892,-0.145172,-0.0266529,0.01957,-0.01379,-0.00221479,0.137227
-0.100339,-0.0335406,0.131606,-0.578465,0.326899,-0.119723,0.181002,-0.0135665,-0.331747,0.352789,-0.342946,-0.290696,-0.0853411,0.0139256,-0.0258835,0.0576312,-0.141101,-0.0906569,0.00313897,0.0210401,0.0052285,0.0410958,-0.0310291,-0.00952429,-0.0360049,-0.0245297,-0.0268762,-0.00587393,0.00143453,0.0128059,0.00970631,-0.00271463,-0.00210318,0.00403865,-0.00266351,-0.00986525,-0.00162787
-0.0123476,0.105669,-0.0850991,-0.205405,0.390644,0.750991,0.238139,0.00596348,0.0720588,-0.228537,0.183669,0.0522785,-0.0780051,0.197957,0.0232624,0.0157682,0.0380159,0.0522214,-0.0580826,0.0748198,0.00552867,-0.0324895,0.0215082,0.0848513,0.0021678,0.0503069,0.00531776,0.00401814,-0.0088044,-0.0170214,0.0121447,0.0246394,-0.005732,0.00256749,0.00288906,0.00699287,-0.0106236
0.0602123,0.265238,0.0626422,0.47961,-0.197836,0.0969395,0.695487,0.0405276,-0.0102863,0.224136,-0.204014,-0.202353,-0.0691635,0.0758544,-0.0368358,0.0286991,-0.06347,-0.00777847,-0.0346973,0.00571806,-0.0392088,0.0301055,-0.0323449,-0.0244233,-0.0518887,-0.0122633,-0.00514228,-0.000898212,-0.00203474,-0.0022832,0.00330519,0.00368425,0.000894594,0.00329912,0.00655883,0.00421171,-0.00586373
0.162611,0.575344,0.0163976,-0.0436123,0.0047492,-0.0549618,-0.22814,-0.110066,-0.0409523,-0.0167373,0.0660035,-0.0654465,-0.0137818,0.158266,-0.0625689,0.114501,-0.133118,-0.107561,-0.00634451,0.0196052,-0.0793238,0.0332217,-0.0422739,-0.0383791,0.11878,0.00786292,-0.00353298,0.00471777,0.0180664,-0.0132779,0.034084,0.017156,-0.0479144,0.0206459,-0.0353313,0.0757342,-0.000502576
-0.137002,-0.326482,0.0403953,0.177899,-0.0103744,0.081359,-0.0813932,-0.00362922,0.0211251,-0.046264,0.139553,0.030578,-0.339392,0.0849898,-0.0568901,0.266796,-0.667314,-0.340681,-0.0924877,-0.0205695,-0.0547883,0.123703,-0.0779013,-0.0532371,-0.00215231,-0.0459548,-0.038801,0.0139523,-0.00604335,-0.0372897,-0.00552235,0.0367328,-0.0166262,0.00124174,0.0143999,-0.00568922,-0.00192152
-0.112724,-0.262717,-0.00667067,0.103666,-0.0620391,-0.0845891,-0.0963279,-0.318803,-0.00464953,-0.129634,-1.76112e-06,-0.477848,0.153642,0.605635,-0.103772,0.152669,0.124105,0.201939,-0.124161,0.133288,-0.0305708,-0.0442804,0.0073185,0.127759,-0.00479408,0.0536174,0.0152195,0.00782044,-0.0141833,0.0395316,0.0309646,-0.0128436,-0.00107423,0.0015334,0.00658907,0.0112635,-0.020424
0.0247089,-0.0773691,0.198062,0.146926,0.0537109,0.0715809,-0.077442,-0.136619,-0.171213,0.0271845,0.047409,-0.0281071,-0.159644,-0.083937,0.161783,-0.0640478,0.0661938,0.00996868,0.0679006,-0.0651457,0.193164,-0.121335,0.00768463,0.159058,-0.407799,0.0476902,-0.0345687,-0.0421214,0.0411559,0.0464799,-0.0203631,-0.0292451,-0.0825997,0.115727,0.0120891,-0.0179124,-0.0196963
0.0313559,-0.0503489,0.284588,0.117464,0.112136,0.082385,-0.0680401,-0.117208,-0.000376531,-0.00255004,0.00437633,-0.0793892,-0.00591183,-0.158668,0.0494053,-0.033068,0.0891241,-0.0300088,0.0621795,0.325858,-0.189818,-0.0815135,-0.253023,-0.17719,0.143525,-0.0511759,-0.0223581,-0.00700675,-0.0269777,0.00442113,-0.0809007,-0.0468931,-0.0712085,-0.152154,0.0195454,-0.0620883,0.0160408
0.0253204,-0.0400866,0.205556,0.087299,0.0670176,0.0390144,-0.0426801,-0.0531762,-0.0499104,0.0462411,-0.000765111,-0.00146143,-0.130388,0.0654387,0.0692701,-0.0704972,0.0738848,0.0429955,0.00147844,-0.115803,0.177084,0.266675,0.177887,-0.203432,0.271036,0.245519,0.0587692,0.0884189,0.0135335,0.0815595,-0.0914697,-0.0303196,0.106219,0.0630648,-0.126553,0.00400933,0.0188214
0.0234222,-0.0731457,0.189292,0.139809,0.0524907,0.0687739,-0.0743949,-0.130596,-0.165444,0.026503,0.0450162,-0.026467,-0.153784,-0.0813625,0.154967,-0.0588487,0.0673609,0.00969967,0.0665261,-0.0554962,0.186431,-0.116615,0.00502725,0.146161,-0.395446,0.050592,-0.0332069,-0.0377079,0.0441847,0.0513357,-0.0281412,-0.0480537,-0.0840393,0.114308,0.00477109,-0.00201922,-0.0136203
0.0303738,-0.0484375,0.277335,0.113076,0.111376,0.0802031,-0.0671428,-0.114128,0.000969133,-0.00023456,0.00314253,-0.0791479,-0.00843931,-0.155107,0.0478188,-0.0331569,0.0901746,-0.0281998,0.061671,0.326366,-0.186981,-0.0833373,-0.257543,-0.183957,0.146443,-0.0488943,-0.026756,-0.0113372,-0.0227875,0.00465139,-0.0812853,-0.0642958,-0.0985465,-0.167652,0.0184776,-0.069358,0.0105334
0.0245251,-0.0386378,0.200696,0.0848738,0.0671594,0.0387992,-0.0422491,-0.0520568,-0.0476614,0.0461799,-0.000652454,-0.00203491,-0.129486,0.0628702,0.0675174,-0.0681911,0.0747556,0.0426914,0.00240323,-0.112043,0.177096,0.2632,0.174309,-0.205769,0.27316,0.251642,0.0576769,0.089612,0.01803,0.0857319,-0.0952941,-0.0387514,0.117059,0.080522,-0.150102,0.0266726,0.018056
0.17255,0.532069,0.0901821,0.0273451,0.0108808,-0.0240865,-0.251079,-0.178204,-0.15074,-0.0141966,0.0959831,-0.0682818,-0.0827753,0.122627,0.0329976,0.09339,-0.115999,-0.0997967,0.0217378,-0.0261112,0.0257697,-0.0190656,0.00296353,0.0653666,-0.100841,0.0051195,-0.00428907,0.00260419,0.0220094,0.0151993,-0.00942493,0.0106156,0.0184485,-0.0119946,0.0328175,-0.0769868,0.029935
