-0.00161764,0.00757098,-0.00432237,-0.000785872,0.00356354,0.0129949,-0.0229832,-0.0349133,-0.0492417,-0.00148739,0.0715125,0.0157105,0.00817973,-0.081876,-0.131291,-0.177631,0.0192397,-0.0152499,-0.0176922,0.0283418,-0.00289598,-0.0399223,0.0101958,-0.0248508,0.00774649,0.00150454,0.126397,0.0545885,-0.0488495,0.0233785,0.0175091,0.0200657,0.0158145,0.00981751,-0.0654225,0.0953295,-0.0241565,0.035838,0.0764682,0.0259063,-0.176653,0.0986648,0.0591043,0.146805,0.0991849,0.086001,0.0226616,0.044582,-0.137731,-0.0286069,0.0269887,-0.0908492,-0.07553,0.0245019,0.0961921,-0.164761,0.126376,0.0137466,0.556298,0.0253447,0.0693971
0.00138311,-0.00422406,0.0106348,-0.00228363,-0.00169799,-0.0119207,0.016916,0.0310293,0.0476786,-0.0144477,-0.0764273,-0.0178625,-0.0146189,0.0596478,0.126237,0.158591,-0.0251147,0.0205231,-0.00313479,-0.0517873,-0.00320735,0.0103686,0.00535272,0.0386999,0.0436309,0.0343259,0.0637773,-0.190671,0.0265344,0.0333468,-0.0277232,0.0438545,0.00901527,0.0152617,-0.0423238,-0.023003,0.0794672,-0.0229186,0.00162138,0.0979149,-0.0943779,0.00781991,-0.192012,0.0229445,-0.0544615,0.0503496,0.00536316,0.100486,-0.061861,0.0165786,0.169697,0.0546459,0.133372,-0.0540966,0.106356,0.0159619,-0.108925,-0.101762,-0.242546,0.0390632,0.203572
0.00142415,-0.00263887,0.0089953,-0.00304681,-0.000122437,-0.00709092,0.0205854,0.0397583,0.0316506,-0.00277419,-0.0742275,-0.00864155,-0.0153549,0.0696104,0.0896888,0.136803,-0.00890301,0.0189922,0.0181112,-0.0349281,-0.017529,0.0299149,0.0166653,0.0226416,0.0374376,-0.0309636,-0.0382158,0.156604,0.00590064,-0.0806214,0.050148,-0.0219344,-0.0239098,-0.0253677,0.0376823,-0.0578716,0.0113167,0.0293887,-0.0246529,0.149021,-0.0188018,-0.105099,0.0368929,0.160286,-0.0339092,0.0540754,0.0525192,0.0172946,0.0326114,-0.0452395,0.0860727,0.058269,0.111801,-0.0897442,-0.0441753,0.335903,-0.10782,0.253949,-0.264496,-0.0283203,0.248025
0.191161,0.0974152,-0.0178636,-0.0242341,0.0126199,0.0339977,0.0157769,-0.122068,-0.0547787,0.093886,0.0661944,0.070214,-0.0342988,0.0717352,0.00422807,-0.0221224,-0.0411816,-0.00922631,-0.00134895,-0.146295,-0.0205169,0.0231899,0.094612,0.0502865,0.018155,0.156296,0.00278683,0.0211646,0.0500662,0.00182875,0.0430002,-0.0334863,0.0209808,0.0495754,-0.038872,-0.0444108,-0.0964482,-0.0220331,-0.0521513,-0.0348579,0.0223725,-0.101609,-0.109429,0.0133766,-0.0471482,-0.050651,-0.0206545,-0.0101111,0.0804979,0.00101271,-0.0503934,0.00810525,0.00125565,-0.0103946,-0.0329911,-0.0352628,0.0173292,0.0017495,-0.0798493,0.0546127,-0.148298
0.154235,0.0828946,0.057077,0.0078441,0.00982345,-0.0050657,0.0592857,0.061819,0.0543927,-0.0425514,-0.0247003,0.00775386,-0.121279,-0.0899359,0.0733808,-0.0271796,0.0812932,-0.0293974,-0.0950937,0.0909545,0.107722,-0.15139,-0.03534,0.0176411,0.0448353,0.0454523,-0.055081,0.0303243,-0.0411331,0.136929,0.12848,0.0168369,-0.0400968,-0.031415,-0.066175,0.00201674,0.00654491,-0.0355194,0.155813,-0.0305813,0.0531488,-0.0702199,0.061114,-0.028866,-0.0100766,-0.0129287,0.0246252,0.0240065,-0.0527528,-0.0657684,-0.0400002,0.00895778,-0.0974599,0.0708487,0.0296472,-0.0132879,0.0464301,0.0744605,-0.0577099,-0.0183277,0.0319692
0.126264,0.0703286,0.0630898,0.0281951,0.0141302,-0.040243,-0.0199845,0.166127,0.0386127,0.0033824,-0.0493926,0.0458569,0.097263,0.053788,0.0253662,-0.0674453,-0.0655385,-0.0102052,-0.0283478,0.210888,-0.19545,-0.0832765,0.126794,0.00565907,0.0232725,0.0192798,0.00824485,-0.0679191,0.0428732,-0.00397904,0.0503493,4.2406e-05,-0.0294471,-0.032379,0.0560016,-0.00924118,-0.146528,-0.0226206,-0.139003,0.0777562,-0.0307127,0.14168,0.0176042,-0.0802855,0.0100095,0.000402954,-0.00116966,0.004674,-0.000407988,0.0317158,-0.0547,-0.0541128,-0.00696558,0.0103902,0.0167087,-0.0912145,-0.0411332,0.0022391,-0.0776551,0.0340017,0.00948831
0.179821,0.093656,-0.016374,-0.0258297,0.0160948,0.0334867,0.0174322,-0.116394,-0.0490685,0.0927739,0.0683051,0.0709315,-0.0420971,0.0684322,-0.00128209,-0.026801,-0.0483831,-0.0062943,0.0107214,-0.147106,-0.0104091,0.0173437,0.0865783,0.0441841,0.0285435,0.164428,0.0197156,0.0291209,0.0872961,0.00201175,0.0388869,-0.0417333,0.0308757,0.0720906,-0.0603405,-0.11578,-0.0963373,0.00159728,-0.0568028,-0.067783,-0.0471541,-0.094873,-0.0752522,0.0368763,-0.0770757,0.0119867,-0.0449725,-0.0297634,0.0496222,0.0337587,-0.100584,-0.0161203,-0.0129688,0.0956464,0.00833873,0.00484317,-0.0187157,-0.0128563,-0.0711933,0.048551,-0.0753554
0.1427,0.079015,0.0653803,0.0105313,0.0110926,-0.00685689,0.0621129,0.0685895,0.0590312,-0.0401704,-0.0236341,0.0193513,-0.128737,-0.0904378,0.080105,-0.0265075,0.0841134,-0.0296612,-0.100861,0.0821841,0.108956,-0.154745,-0.0117526,0.0353005,0.0517167,0.065827,-0.0496226,0.0322706,-0.0823487,0.148533,0.137362,0.0408214,-0.0676792,-0.056572,-0.0549951,-0.0384149,0.0366469,-0.0407429,0.227362,-0.0420946,0.0449729,-0.0516471,0.0925891,-0.0229967,0.0488326,0.0149864,0.0070551,-0.0455855,0.0203009,0.0289827,-0.0434084,-0.0113489,0.0228296,0.0721161,-0.069922,-0.0401925,0.00598503,0.0691429,-0.017303,-0.0210597,0.0235526
0.104512,0.0598135,0.0626426,0.0246564,0.0110638,-0.0336758,-0.00480583,0.14736,0.0345932,-0.00698303,-0.0418672,0.0419107,0.0687978,0.0431776,0.0276632,-0.0610386,-0.059327,-0.00982945,-0.0310811,0.17732,-0.168709,-0.0844934,0.12382,0.0179555,0.0299978,0.0261305,0.00778399,-0.0628678,0.0551149,-0.0255234,0.0690626,0.00111846,-0.0421381,-0.0345082,0.0626624,-0.00398529,-0.13245,-0.0117599,-0.140693,0.0774541,-0.0641276,0.1708,0.0297886,-0.0969291,0.00579464,0.00702948,-0.0266486,-0.0573071,0.012327,-0.025902,0.044994,0.0441221,-0.0304747,0.0906458,-0.05627,-0.0168596,0.0517834,-0.0320321,-0.0540371,0.0399188,0.000532052
0.212914,0.0991139,-0.0461954,-0.0218596,-0.00223819,0.0389934,-0.0177948,-0.159469,-0.107468,0.0793784,0.0896496,0.0621267,0.0195867,0.0209236,-0.0666283,-0.130622,-0.0094056,-0.0254369,-0.0487089,-0.0874285,-0.0699081,0.0077124,0.128368,0.0348325,-0.0287186,0.126046,0.0291654,0.0551159,-0.170789,0.0480749,0.0432994,0.0280576,0.0242418,-0.0461105,-0.0287644,0.428486,-0.196022,-0.0924866,0.0226496,0.0388221,-0.0168865,-0.0468258,-0.269616,0.253097,0.27815,-0.158651,0.1974,-0.0495148,0.0915486,-0.109862,0.0865553,0.23908,0.0507821,-0.148311,-0.0961778,-0.0715231,0.00354117,-0.0156612,-0.0634926,0.00723374,0.217861
0.108982,0.0524043,0.0419382,0.00549112,0.00392545,-0.0199595,0.0563284,0.0642098,0.0709562,-0.0357775,-0.0834817,-0.0145202,-0.0625185,0.0335303,0.130925,0.115443,0.0199625,-0.00212499,-0.0468899,0.00186419,0.0795331,-0.0604081,-0.0258577,0.0483972,0.0420655,0.0671336,0.00962824,-0.151797,-0.0122361,0.127419,0.0733165,0.0655605,-0.0396518,-0.0383119,-0.0703001,-0.0600719,0.157409,-0.0541908,0.0785629,0.16768,0.0996017,0.124173,-0.512182,0.048253,-0.0668695,0.0351661,0.102973,0.287501,-0.282082,-0.201548,-0.0305448,-0.00444946,-0.291063,0.158097,0.0626508,0.0293844,0.0920805,0.172889,0.0538833,-0.026266,-0.0931039
0.103722,0.0518749,0.0391163,0.00711671,0.00196991,-0.0217102,0.0304641,0.105745,0.0502452,-0.00189784,-0.095503,0.00425601,0.0186992,0.109349,0.101117,0.0542988,-0.00910624,0.0276273,-0.000976778,0.160429,-0.171659,-0.00063484,0.0521607,0.0152714,0.0260326,-0.0517926,-0.0170826,0.0738704,0.0188621,-0.0748189,0.0733893,-0.0123903,-0.0310821,-0.0659952,0.113888,-0.152047,-0.0937373,-0.0460915,-0.165132,0.386932,0.146094,-0.282818,0.147993,0.383655,0.134756,0.033672,0.118275,0.0935368,-0.0517265,0.0776976,-0.243398,-0.255492,0.0123964,-0.0861605,0.106634,-0.20583,-0.0140782,-0.0815393,0.0492028,0.0435602,0.0364679
-0.130312,-0.063248,-0.00087652,0.0136772,-0.00707819,-0.00829707,-0.0362818,0.0230893,-0.0220975,-0.0361056,0.0235116,-0.00727975,0.027781,-0.0667594,-0.0813076,-0.103596,0.00238312,0.00342237,-0.00329593,0.068295,-0.00578478,-0.0485771,-0.0387406,-0.0467572,-0.012104,-0.0419411,0.059059,0.0386001,-0.0686846,0.0565816,0.000528218,-0.00613078,0.0588208,0.00881379,-0.119115,0.198536,-0.0910576,0.0687852,0.0617433,-0.0642322,-0.320343,0.218694,0.0755988,0.34616,0.185528,0.237237,0.157932,-0.0540401,-0.221331,0.117598,-0.0819524,-0.197164,-0.0562815,0.249151,0.0891555,0.265196,-0.120918,0.0638676,-0.288581,-0.0401226,-0.137778
-0.143211,-0.0717787,0.00946794,0.00917688,-0.00576102,-0.0172793,-0.00881135,0.00697384,0.0148079,0.018182,-0.0389709,0.0313664,0.0627746,0.114004,0.036594,0.135721,-0.0686887,0.0364653,0.0538893,-0.130307,-0.083702,0.108972,0.129827,0.0873753,0.00959449,0.0896644,0.10254,-0.179616,-0.112504,-0.0107111,-0.076118,0.125723,-0.0624495,-0.0594771,0.0536056,-0.21641,0.193048,-0.0031597,0.0996928,0.0844836,-0.0440894,0.287146,-0.300861,0.153602,0.181449,0.20254,-0.0505406,-0.160945,0.137632,0.17656,-0.00974025,-0.0473499,0.245654,-0.00987093,-0.14038,-0.0799622,-0.0850705,-0.167281,0.166917,0.0161296,-0.0424728
-0.105921,-0.0547237,0.000910119,-0.0140485,-0.0200045,0.0269513,0.0808247,-0.0848146,-0.0120129,-0.0534432,-0.000334428,-0.0478867,-0.172424,0.0167938,0.081885,0.113638,0.0674743,0.00477141,-0.0104157,-0.168936,0.113492,0.0478373,-0.0464057,0.0628819,0.032523,-0.0259014,-0.0200552,0.126971,0.0178852,-0.148223,0.123197,0.00663674,-0.0760033,-0.0389019,0.086485,-0.0919291,0.0751302,0.0228245,-0.0769554,0.232188,0.0270369,-0.14686,0.186485,0.284089,0.0848571,0.0619051,0.03917,-0.166229,-0.00253542,-0.100494,0.23296,0.356224,-0.086752,0.255232,-0.0539318,0.137634,0.155585,-0.072289,0.162619,-0.00521937,-0.193358
0.149866,0.0955338,0.0727659,-0.00319137,0.0256341,0.000355302,0.0724868,0.0709365,0.0473799,0.0408517,0.0131689,0.0914165,-0.0552958,0.0025889,0.0285091,-0.0579,-0.0249826,-0.0319865,-0.0362156,0.00129818,-0.0167599,-0.0595978,0.0776101,0.0292979,0.0412475,0.106354,0.00290365,0.0110314,0.0383512,-0.0289037,0.00831628,-0.0174661,0.0067725,0.0148431,-0.0162326,-0.0214351,-0.0218734,-0.000356597,0.0125473,-0.0325165,-0.0815612,0.00558823,0.000608695,0.0190806,-2.23655e-05,0.0288462,-0.00779487,-0.0459746,0.0231805,-0.00489159,0.0658785,0.0182883,0.0660025,-0.123428,0.229984,0.135831,-0.0943965,-0.0947956,0.130929,-0.0161772,-0.299168
0.0911084,0.0614599,0.00770176,-0.0343922,0.0298163,0.0370951,0.0502275,-0.0828134,-0.00979389,0.155849,0.0748911,0.135637,-0.0316329,0.0397086,0.000790758,-0.0540491,-0.0605163,-0.0290173,0.0314622,-0.142401,0.0249737,0.0474104,0.0699987,0.061824,0.0343722,0.124791,-0.0132647,0.00935122,0.130397,0.00151988,-0.0122729,-0.0989429,0.0763751,0.103436,-0.112553,-0.0547235,-0.0105282,-0.043384,0.0693618,0.0479416,-0.114801,0.0141782,0.0859869,0.0985437,-0.160638,0.189437,-0.00810022,0.106928,-0.0726931,-0.012599,0.146117,-0.0174661,-0.0134625,-0.226231,-0.18064,-0.0869931,0.0759734,0.116107,0.0129351,-0.0524114,-0.263552
0.0445785,0.0409965,0.0635626,-0.00435633,0.0247296,-0.00706442,0.0830552,0.0832572,0.0834064,0.0186482,-0.015012,0.0753161,-0.0947353,-0.0616027,0.0738536,-0.0168795,0.0303796,-0.0397168,-0.0577113,0.0343164,0.121325,-0.101901,-0.0181721,0.0108985,0.00599361,0.0561323,-0.0791238,0.0334023,-0.106227,0.103657,-0.0305998,0.0578471,0.0272192,0.0225107,-0.0959325,-0.010222,0.0302662,0.0208312,0.011608,-0.00124266,-0.143546,-0.0192238,0.0756524,0.0241848,-0.0819221,0.111608,-0.0147855,0.0340592,-0.0590812,-0.043442,0.248455,-0.00482153,0.102466,-0.276579,0.383202,0.0716851,0.0840154,-0.520378,-0.0730741,0.121206,0.0354112
0.030663,0.030682,0.0509215,0.00526081,0.0170357,-0.00955726,0.0227505,0.116926,0.0576887,0.0335651,-0.023717,0.0728115,0.0269894,0.0274792,0.0308515,-0.0500208,-0.0530346,-0.0262859,0.000405548,0.114338,-0.0986805,-0.0402953,0.0889142,0.0338128,0.0379275,0.0218399,-0.0181828,-0.042226,0.140572,-0.100624,0.0358034,-0.0728288,-0.048859,-0.0442403,0.0518255,0.0631935,0.0163043,0.0941069,0.0450981,0.0121406,-0.0829289,0.012281,0.0273864,0.00968629,-0.0683307,0.0863941,-0.0352319,0.0247673,0.00429642,-0.0706126,0.200111,-0.00418198,0.109143,-0.294552,0.0141014,0.231829,-0.263809,0.405739,0.292093,-0.160938,-0.0342068
0.154688,0.084647,-0.0121625,-0.0271915,0.0222956,0.02991,0.0207299,-0.0963068,-0.0331183,0.0826251,0.0677962,0.0676004,-0.0599111,0.0509434,-0.0154414,-0.0418476,-0.0552029,-0.00710122,0.0339169,-0.136446,0.02288,0.00134165,0.0747109,0.0368679,0.0547185,0.172275,0.0617945,0.0404147,0.156621,-0.00390851,0.033833,-0.0416852,0.0335005,0.100442,-0.0769461,-0.298412,-0.0626788,0.0462746,-0.0564036,-0.145127,-0.188924,-0.0718325,0.00609823,0.0688134,-0.154508,0.149034,-0.104689,-0.0663486,-0.0117071,0.073966,-0.20135,-0.0625432,-0.065683,0.316611,0.0808264,0.0768954,-0.0962579,-0.0365636,0.0773234,-0.0507165,0.386884
0.107443,0.0627388,0.0682689,0.0125881,0.0121891,-0.00973355,0.0595634,0.0739702,0.0606779,-0.0290473,-0.022226,0.0353505,-0.122839,-0.0710212,0.0871104,-0.020832,0.0778274,-0.029915,-0.0923013,0.0626208,0.0975485,-0.140653,0.0212771,0.0524864,0.046018,0.0806725,-0.0451085,0.0372105,-0.142428,0.152303,0.126573,0.0722966,-0.0976572,-0.0815669,-0.0305353,-0.0881477,0.0853592,-0.0378623,0.309002,-0.0527775,0.0244453,-0.0356307,0.11831,-0.0141772,0.123553,0.0294072,-0.00725925,-0.13023,0.103487,0.221384,0.0147707,-0.037487,0.278688,0.0722189,-0.294719,-0.0928812,-0.10907,0.0522417,0.0049277,-0.029238,0.0326941
0.0800279,0.0488912,0.064901,0.0195613,0.00691217,-0.0266258,0.0201001,0.127349,0.0337483,-0.0199276,-0.031892,0.040693,0.0282698,0.0268053,0.0310717,-0.0562283,-0.0530364,-0.00853048,-0.0402402,0.138186,-0.14066,-0.095699,0.125162,0.0366578,0.0437355,0.0416383,0.00727596,-0.0620434,0.0826777,-0.0572953,0.0958071,-0.00554126,-0.0622057,-0.0430078,0.0769573,0.00408008,-0.113102,0.00552914,-0.143139,0.0821511,-0.124404,0.235935,0.0491576,-0.128809,-0.00461341,0.0230881,-0.0812374,-0.166126,0.0435867,-0.123287,0.190837,0.160596,-0.0739993,0.23097,-0.229714,0.13995,0.276525,-0.129075,-0.022612,0.0632148,0.0212484
0.127266,0.110887,0.0442125,0.0433193,-0.0178919,0.0224714,-0.0482218,-0.042089,-0.078059,-0.19431,0.0753972,-0.142775,-0.007252,-0.155585,-0.312323,-0.288042,0.0702333,0.0232949,-0.0628905,0.0165293,-0.0230874,-0.135008,0.0356259,-0.0277232,0.0387449,-0.0305057,0.512874,0.112603,-0.186677,-0.11569,-0.00543466,0.187976,-0.0473695,0.0278763,0.082518,-0.137233,0.231721,0.24828,-0.0812668,0.1929,0.0145494,-0.0920605,-0.0809452,-0.0198148,-0.191592,0.0493711,-0.0517266,0.0731836,0.0358007,-0.0114754,0.043005,0.0170181,0.0431904,-0.068562,-0.0609622,0.0265761,-0.0164728,0.0131135,-0.142108,0.00254227,-0.0238101
0.164334,0.051143,0.0665666,0.0222409,-0.0455081,-0.0220967,0.0357528,0.0232164,0.0556232,-0.187014,-0.188668,-0.173262,-0.0106202,0.0157452,0.128728,0.282462,0.0169838,0.0521264,-0.0691644,-0.182521,-0.0574747,0.0298087,-0.0360894,0.0252191,0.157341,0.0675986,0.479174,-0.411396,0.0935026,-0.0155412,-0.115731,-0.021606,0.0914811,0.13275,-0.0888778,0.23653,-0.0392135,-0.0685959,0.0527297,-0.0740589,-0.0714641,-0.0929899,0.309348,0.0103099,0.0669555,-0.0777677,0.0119244,-0.0335932,0.00472003,0.0354581,-0.0248756,-0.00772082,-0.0520581,-0.0305108,-0.0147947,-0.00658294,0.0513025,0.0258669,0.0434744,-0.0107336,0.00349718
0.133442,0.0476025,0.0544232,0.0222326,-0.0123627,-0.0372238,-4.78266e-05,0.121124,0.0352144,-0.0894305,-0.198138,-0.129442,0.119749,0.117496,0.0694627,0.303281,-0.0612754,0.0792505,0.0524701,-0.15229,-0.106393,0.107917,0.0202766,-0.0198402,0.102766,-0.0719992,0.106498,0.709691,-0.133413,-0.0645552,0.118542,-0.0128314,0.0452812,0.0427599,-0.093018,0.0626352,-0.0253597,-0.034417,0.101135,-0.0901976,-0.126569,0.174838,-0.0632225,-0.141593,-0.0344929,0.00644781,-0.028836,0.0276028,-0.0183965,-0.00300826,0.0138951,-0.0470367,-0.0382111,-0.0319232,-0.00135307,-0.0919255,0.0211899,-0.027017,0.0533816,-0.00315551,-0.0215038
-0.0925248,-0.0903952,-0.0536362,-0.0505774,0.0325557,-0.0023991,0.0141823,0.012809,0.0760234,0.313544,-0.0220822,0.00412352,0.0544879,0.0257678,0.241213,-0.147883,0.0764557,-0.0464191,0.0638676,-0.0147991,0.0301867,-0.0537273,-0.157771,0.0161171,0.0876977,-0.0398034,0.246682,0.129182,0.15593,0.2307,-0.137842,0.0574004,-0.0727193,-0.152601,0.17805,0.0510208,0.0278554,-0.0401654,0.0341681,0.106203,-0.21442,0.00402088,0.0502363,-0.0736577,-0.0688896,-0.000901563,0.0414831,-0.011609,-0.100543,-0.198024,-0.308479,0.192152,0.130284,-0.0582447,-0.0670183,-0.0390945,-0.0311432,0.014066,0.0596944,0.241839,0.0253163
0.0555238,0.0372117,0.0184604,0.0179847,-0.0254791,-0.00992122,0.0232407,0.0204864,-0.0693269,-0.278506,0.0311352,0.0967188,-0.0296504,-0.0654853,-0.19742,0.148692,-0.0820733,-0.0468222,-0.0972748,0.095696,0.0497782,0.19344,0.123578,-0.0153805,-0.0680802,-0.0304407,-0.175051,-0.104884,-0.0996008,-0.156795,0.0837035,-0.0320862,0.0414697,0.0968829,-0.110349,-0.0381411,0.0136307,0.00952768,0.0454395,0.0201564,-0.0406531,0.0116492,0.0327688,-6.69382e-05,2.53545e-05,0.000571653,-0.0010971,0.0199723,-0.0327462,-0.0431415,-0.0048293,0.00538425,0.0235379,-0.00482769,0.0270197,-0.0523405,0.00449316,0.110639,0.104133,0.322289,0.114047
-0.0328325,-0.039436,-0.015179,-0.0130488,0.0167794,0.00744329,-0.0219236,0.0190983,0.0935407,0.23734,-0.0914012,-0.228439,0.104823,-0.00110648,0.168781,-0.209887,0.232749,0.0788895,0.0444581,-0.198265,-0.114983,-0.215289,0.0256556,0.00370864,0.0252131,0.0468279,0.0322239,0.0278811,0.00253214,-0.000918944,0.00762654,-0.0319831,0.00575691,0.0156322,-0.0188924,-0.000178904,-0.0397297,0.0232141,-0.0892239,-0.132051,0.312381,0.0275067,-0.0526947,0.0672777,0.0537035,0.0307578,-0.0117808,-0.0211591,0.123245,0.198837,0.387922,-0.228421,-0.146835,0.0793859,0.116858,-0.00289641,0.0476728,0.0936722,0.0339687,0.0590538,0.0817082
0.031142,0.0104856,-0.0253668,-4.63883e-05,-0.00824981,-0.0162741,0.00479703,-0.0841471,-0.124425,-0.100222,0.115075,0.334375,-0.138175,0.0994038,-0.0381661,0.171813,-0.323886,-0.128451,-0.0463512,0.210443,0.0798201,0.0946764,-0.188936,0.0372162,0.100888,0.00252904,0.265165,0.176507,0.196354,0.334962,-0.161329,0.0733359,-0.0453856,-0.139586,0.151293,0.0456573,-0.0116242,0.0508821,-0.0839409,-0.0658652,0.212574,0.0282103,-0.0168629,0.0319779,0.0465202,0.00507936,0.0402919,-0.0410309,0.0838404,0.136042,0.25158,-0.130941,-0.0897506,0.0496037,0.0532647,0.0120448,0.0298443,0.0256843,-0.0106972,-0.0587954,0.0174312
-0.0683805,-0.0118245,-0.0954674,-0.0635245,0.0548635,0.0127977,-0.00171288,0.0160402,0.0337212,0.210235,0.0313955,-0.0449691,-0.0515634,0.118818,0.09994,-0.0707848,-0.19774,0.142155,-0.166352,0.15232,0.0917431,0.0850086,-0.0318743,0.0099042,0.0307517,-0.0368236,0.0222177,-0.0173148,0.00967982,-0.227797,0.107262,0.412981,0.0828953,0.115601,-0.0209934,0.0193864,-0.0268722,-0.0211236,0.085587,0.0490112,-0.165627,-0.0975826,-0.0669467,-0.092348,0.0333301,-0.0913252,-0.027398,-0.0294146,0.00530672,0.248406,0.0103183,0.0580776,0.0862144,0.0278418,0.210958,-0.0679908,0.293145,0.220098,-0.0270474,-0.0665341,0.00854694
0.0530009,0.0164666,0.0312086,0.0191289,-0.01676,-0.0185747,0.024309,0.0195102,-0.0640211,-0.199645,0.01121,0.0969833,0.0459263,-0.0963694,-0.0397119,0.0622441,0.199075,-0.199942,0.264335,-0.139342,-0.117197,-0.0991302,-0.000927172,-0.0188511,-0.0464041,0.0023895,-0.0309078,0.00135738,-0.00462001,0.139223,-0.082839,-0.277771,-0.0688032,-0.0866089,0.0481679,-0.0265515,0.0548642,-0.00894193,-0.0560028,0.0393236,-0.0678551,0.0176559,-0.0409429,0.00252495,0.00541012,0.00191129,-0.00618307,-0.0362848,0.0180512,-0.0153733,-0.0117214,0.0137393,0.101783,0.0153727,0.0989065,-0.076281,0.112749,0.104053,-0.0159047,0.0116773,0.026401
-0.0151105,-0.00883214,-0.0303858,-0.0145969,0.0047575,0.0147069,0.00782969,0.0139845,0.0463762,0.113409,-0.0205996,-0.21174,-0.0385652,0.0663938,-0.0585875,-0.0427784,-0.202769,0.24421,-0.362236,0.0462684,0.116941,0.0803137,0.060324,0.0193395,0.046817,0.040977,0.00295685,0.0188084,-0.0097213,0.0318675,-0.0353646,-0.0629427,0.000368919,-0.000167103,-0.0388964,0.0240884,-0.0163079,0.0523403,-0.0432442,-0.127613,0.263148,0.103067,0.0881218,0.0899306,-0.0480789,0.137576,0.0415153,0.0174281,-0.00865477,-0.35369,-0.0262355,-0.0710458,-0.0204052,0.00437698,-0.186887,0.0170144,-0.288237,-0.164475,0.0429029,0.142616,0.0136757
-0.00237798,0.00827707,0.00759083,0.00608189,0.00413117,-0.0103863,-0.0369559,-0.0755536,-0.0745484,-0.0288223,0.00846961,0.264519,0.0171642,-0.0140739,0.184398,0.0376429,0.187672,-0.222164,0.341506,0.105816,-0.0943628,-0.0663053,-0.122985,0.0298774,0.0167829,-0.039021,0.0568987,-0.0114258,0.0376849,-0.241652,0.155108,0.484743,0.139175,0.203293,-0.0982706,0.0382252,-0.0759107,0.0163369,0.0675714,-0.108868,0.196426,0.0614343,0.0455316,0.0478157,-0.0295443,0.0469444,0.0206304,0.0310017,0.0109385,-0.16798,-0.0200053,-0.0387336,-0.0963092,-0.0186864,-0.15684,0.0635076,-0.219391,-0.136018,0.0408692,0.106452,0.00250101
-0.0638893,-0.0135431,-0.0906402,-0.0633696,0.0315444,0.0451996,0.0253767,-0.0812803,0.0984624,0.25162,0.00801301,0.00391821,-0.136151,-0.020422,0.0504773,0.0788723,-0.0948908,-0.201302,0.0869723,0.179308,0.0322708,0.0194545,-0.0842092,-0.00845202,0.0194697,-0.0532936,0.179041,-0.0583904,-0.277129,-0.13791,0.0898101,-0.281869,-0.0418522,0.0399862,-0.0607673,-0.0611496,0.0656359,-0.0173399,0.0467652,0.0706193,-0.208958,-0.0802878,-0.0527152,-0.0415107,0.0700286,-0.148347,-0.0620416,-0.0635661,0.206036,-0.233536,0.137185,-0.180738,-0.0745431,0.117267,0.0427935,-0.0368485,-0.107867,0.07661,-0.0153106,0.196687,0.0582375
0.0516122,0.0183767,0.0189971,0.0191762,-0.0106195,-0.0288226,-0.0144146,0.0616849,-0.0509715,-0.218377,0.00329377,0.113645,0.147094,0.0121381,-0.00715741,-0.0875631,0.112134,0.303397,-0.059005,-0.164559,0.0156442,0.00567148,0.00147192,0.0116286,-0.0338853,0.00845391,-0.149422,0.0375286,0.222635,0.094443,-0.12193,0.215221,0.0383859,-0.0299864,0.0596899,0.0150775,0.0338027,0.00374419,0.0457357,0.00999953,-0.0252009,-0.0357719,0.0115004,0.0253103,-0.00835461,0.020617,0.0424902,-0.0310694,-0.00740316,-0.0365677,0.0226817,0.0691842,0.0390383,0.0384948,0.0439476,0.0218129,-0.00446736,0.10615,0.0332973,0.251219,0.0953559
-0.026232,-0.015877,-0.0390733,-0.0174937,0.00400291,0.037958,0.0203011,-0.0582671,0.0946119,0.188516,-0.0516545,-0.238136,-0.180103,-0.0908606,-0.182851,0.187577,-0.071324,-0.346515,0.0364385,0.0976588,-0.130459,-0.0639483,0.141286,-0.0320926,0.0394255,0.0531551,0.032687,0.0232008,-0.0205212,0.0266225,0.0312746,0.00971402,0.00766704,0.0214077,-0.0451151,0.0377742,-0.0641778,0.0322565,-0.0948391,-0.129543,0.290934,0.0958246,0.0205374,0.0291711,-0.084351,0.167073,0.086061,0.0505945,-0.240615,0.229401,-0.158516,0.280855,0.158542,-0.0804793,0.00882155,0.0840305,0.147075,0.031283,0.05743,0.0713262,0.0316777
0.013111,0.0217514,0.038649,0.0311432,0.0113133,-0.0567198,-0.0660572,0.0292799,-0.12227,-0.0903131,0.0699402,0.289844,0.130038,0.161971,0.336418,-0.197123,-0.0229244,0.213426,-0.00597852,0.0571058,0.127119,0.05679,-0.210628,0.00886902,-0.00254163,-0.0382223,0.191878,-0.0568702,-0.30576,-0.135038,0.153963,-0.371136,-0.0484884,0.0564483,-0.101518,-0.0175349,-0.0277671,0.0444185,-0.102127,-0.106241,0.209804,0.0736251,-0.00194649,-0.00258194,-0.0411572,0.0930754,0.0232402,0.0449925,-0.140815,0.163955,-0.109013,0.195368,0.100211,-0.0535825,0.000347626,0.0507672,0.0898234,-0.0120882,0.039417,-0.0244177,0.00331179
-0.0682656,-0.00869614,-0.0716438,0.181196,-0.108273,0.0791556,0.172808,0.124841,0.178814,-0.0978032,-0.254495,-0.0928256,0.023658,0.330286,-0.309934,-0.217262,0.0317371,0.00265763,0.389387,0.1114,0.349912,0.115872,-0.023742,0.39849,0.0786248,0.181562,0.0251572,-0.00754989,-0.0252903,0.0351058,0.0226386,-0.00453806,0.0135045,0.00284405,0.0071411,0.0400323,-0.128471,-0.0399258,-0.00368094,-0.00276386,0.0261099,-0.0232965,0.00899296,-0.0125508,0.00610794,-0.0306563,0.00743209,0.00770308,0.0107271,0.00611281,0.00335728,0.00631286,0.00462672,-0.00152181,0.0109713,0.00225222,0.0071399,0.00583379,-0.00536437,0.0084526,0.0104645
0.000739325,-0.0716137,-0.0598576,0.0861207,0.132109,-0.0855054,0.260314,-0.123217,-0.0405642,-0.0934574,-0.0934027,-0.0285651,-0.542229,0.116928,0.117895,-0.191925,0.161618,0.262827,0.211683,0.144083,-0.198496,0.278231,0.248764,-0.338803,-0.071821,-0.0739319,0.0766637,0.0107745,0.0317272,0.117814,-0.0124139,-0.0203894,0.0276875,-0.00963358,-0.0183629,0.0164907,0.00702169,-0.0225144,0.0371184,-0.0379634,-0.00112189,0.0409102,-0.021251,-0.0423291,-0.00494579,0.0101856,-0.0233326,0.0207481,-0.00661757,-0.00720146,0.0244505,-0.00553058,0.000363556,-0.0152439,-0.0048378,0.00294829,-0.00484764,-0.00364471,-0.0140069,-0.00180683,0.0042676
0.0551616,-0.132133,0.0550236,-0.0642595,0.163888,0.172308,-0.164289,0.0979081,-0.0350244,-0.0659104,-0.0550678,-0.0967155,-0.0421645,-0.613718,0.202695,-0.067394,-0.404709,0.204574,0.375331,-0.021541,0.0920091,0.105854,0.118081,0.173169,-0.00923161,0.0751522,0.0150793,0.00842737,0.0178451,0.0492364,0.0695738,0.016682,-0.00271706,-0.0353543,0.00669252,0.00314965,-0.0406966,-0.0254912,-0.0494382,0.0272776,0.0445088,-0.00288815,-0.000889952,0.0315124,0.00678813,-0.0455866,0.00364924,0.0127787,0.00838315,0.00251856,-0.00561646,-0.00286561,-0.000581704,-0.0119994,0.00812855,0.00379753,-0.00621755,-0.00219923,0.000329923,0.00128,-0.0062541
0.146752,-0.290855,0.0592989,-0.0558821,-0.105754,-0.0554576,0.0568457,0.0363051,0.00536998,0.04614,0.187919,-0.0313354,0.0389397,0.0475323,-0.0227845,0.0851345,0.0522048,0.0615267,0.052066,0.0735518,0.0400704,-0.0240282,0.0391495,0.0185167,0.0216422,0.00645327,0.00702789,0.00875999,0.0209914,0.0181694,0.0350997,0.0108163,-0.00973554,-0.0075244,-0.0286481,0.0300129,0.0575166,-0.00682005,-0.0611001,-0.0389189,0.00912496,-0.00211378,0.0140724,0.0607339,0.0962267,-0.0235414,-0.269327,0.108422,-0.00709267,0.00499059,-0.000487466,0.0444248,0.0203468,-0.032945,-0.0113944,0.0737445,-0.0221913,-0.00779154,-0.113194,-0.0298802,-0.0513698
-0.118265,0.161257,-0.00233327,-0.0805186,0.103931,-0.0467166,0.146642,0.0284288,-0.171925,0.08608,0.0284115,-0.015504,0.150818,-0.00306675,-0.0572027,0.0989181,0.0336499,0.0928579,0.099269,0.0935109,0.0846559,-0.0426382,0.0870672,-0.0895144,0.0281958,0.102542,0.0173037,0.0112306,0.028105,0.0580847,0.123214,0.0160162,-0.0372539,-0.00464573,-0.0808035,0.0864788,0.210933,-0.0526483,-0.130712,-0.0254924,0.0136439,-0.029221,0.0524365,0.0104546,0.00180489,-0.0294348,0.0549919,-0.0368596,0.0164706,0.00795437,-0.0330033,-0.0178914,-0.0286939,0.0311511,-0.0407994,-0.0114056,0.0111615,0.0360763,0.0274225,-0.0118663,-0.0199783
-0.0969465,0.130018,0.0121511,-0.0895399,-0.0690534,0.153249,0.112164,-0.203849,0.154251,-0.138027,0.191462,-0.0542636,0.0991022,-0.00499835,0.136674,0.0254385,0.0229815,0.0393546,0.028986,0.112832,0.0567039,-0.0741225,0.187854,0.0513961,0.0926511,-0.0937485,0.01262,0.0275776,0.00325895,-0.0131261,-0.116753,-0.025057,0.0157395,0.00130199,0.0108096,-0.0115667,-0.0813285,0.0116239,0.0474836,-0.0114668,0.0112537,0.0251028,-0.02484,-0.0178397,0.0106686,-0.0131586,-0.00746586,0.0116686,-0.0148363,0.0157826,-0.0214074,-0.0024526,-0.0267026,0.0295187,0.00404897,-0.0587673,0.0326862,-0.0376362,0.0268959,0.022897,-0.00946948
0.00561485,0.0491953,0.100885,-0.00670729,0.039614,0.00646942,0.0972571,0.0891074,0.0627039,0.0640976,0.0794219,0.0936867,-0.0461015,-0.0569605,-0.0825716,-0.0996728,-0.0335072,-0.0258261,-0.00712507,-0.0717149,0.0140895,0.0118651,0.00290331,0.00134164,0.0399306,-0.0361541,0.0422432,0.0605506,0.0696784,-0.131325,-0.129068,-0.0694414,0.0935018,0.123504,0.0158537,-0.00884517,0.133921,-0.296345,0.0567224,0.105139,0.101182,0.102767,0.0441336,-0.0467772,0.0727361,-0.0213733,0.0375065,0.00828461,-0.0320163,0.0159644,0.00298893,-0.00126492,0.00668306,0.0184951,0.00638488,0.0196882,-0.0144885,-0.000959669,-0.0365433,0.00890136,0.0694899
0.0112447,0.0328785,0.119046,0.00743331,0.0312643,-0.0066903,0.133228,0.108258,0.118917,0.0265715,-0.0188157,0.0779987,-0.0663133,-0.0344236,0.0623154,0.0276286,-0.00950673,-0.0238787,-0.00988972,-0.0609191,0.0795574,-0.0125294,-0.0168792,-0.0611302,-0.0350622,0.0513652,-0.0644089,0.016471,-0.216792,0.0176943,-0.219603,0.114106,0.071605,0.0233126,-0.00824945,0.0294504,-0.015349,0.11251,-0.239394,-0.0429328,-0.0420237,-0.00738628,-0.00167091,0.0404256,0.00121284,-0.0269877,-0.0544922,0.00176339,0.0202609,-0.00943769,-0.0396525,0.00322391,-0.0170526,0.0152254,-0.0426279,-0.0386939,0.00152179,0.051875,0.0515304,0.0198707,0.0157694
0.00946469,0.0270018,0.0904403,0.00626348,0.0224548,0.00810649,0.0876445,0.0949222,0.0551494,0.0313652,-0.0032021,0.0445011,-0.0112892,-0.00166022,0.0110799,-0.0280154,-0.0445126,-0.0228525,0.0255694,0.00883233,-0.0591579,0.0315343,0.0255628,0.0410591,0.0244713,-0.0052564,-0.0252322,0.00407918,0.12968,-0.182432,-0.0178227,-0.0791003,-0.097158,-0.0444759,0.0954805,0.158901,0.156247,0.237751,0.136199,-0.149216,0.00817145,-0.0919592,-0.0667229,0.0630424,-0.00432196,-0.0111817,0.00988146,0.0195339,-0.00401398,0.01401,-0.0398239,0.0116849,-0.0206957,0.0485465,0.008878,-0.059841,0.0225725,-0.0451792,-0.0058402,0.0321712,0.0299315
0.00536014,0.0465331,0.0956077,-0.00642131,0.0378814,0.00651066,0.0934658,0.0866179,0.0612647,0.0617064,0.0768417,0.0901784,-0.0444136,-0.0538532,-0.079502,-0.0967198,-0.0310432,-0.0254504,-0.00586079,-0.0690566,0.0139238,0.0133414,0.00226696,0.000697301,0.036017,-0.0368822,0.0387281,0.0613509,0.0628557,-0.130519,-0.13082,-0.0649112,0.0909132,0.117621,0.0172342,-0.00332317,0.133902,-0.282227,0.0504826,0.0985426,0.105182,0.10676,0.0449498,-0.0419855,0.0855775,-0.021897,0.0424412,0.00521567,-0.03857,0.0214108,-0.00698504,-0.00782551,-0.00134696,0.0309829,-0.00232438,0.0248431,-0.00916135,-0.00367155,-0.0505411,-0.00656825,0.0559881
0.0109518,0.0316375,0.114992,0.00728997,0.0301208,-0.0060074,0.131249,0.106988,0.117397,0.0261222,-0.018905,0.0769132,-0.0649253,-0.0315765,0.0616345,0.0282243,-0.00973103,-0.0239896,-0.00842342,-0.0606985,0.0786278,-0.00942718,-0.016468,-0.0601458,-0.035005,0.0503446,-0.0652171,0.0171556,-0.21524,0.0131301,-0.224827,0.114197,0.0712363,0.0232432,-0.0049019,0.0326143,-0.0141442,0.116153,-0.250518,-0.0458343,-0.0399176,-0.00369526,-0.0016764,0.0420949,0.00592024,-0.0293431,-0.0570683,-0.00340791,0.0265887,-0.00597799,-0.0473373,0.00229049,-0.0223225,0.0183239,-0.0634688,-0.028101,-0.00240986,0.0866837,0.04766,-0.00920463,0.00714785
0.00919296,0.0260318,0.0876717,0.00602768,0.0222046,0.00779213,0.0867048,0.0933555,0.0550684,0.0311463,-0.00337407,0.0440056,-0.0116705,-0.000755702,0.0110152,-0.0264414,-0.0435685,-0.0222161,0.0255565,0.00819796,-0.0580337,0.033155,0.024116,0.0404885,0.0231774,-0.00619258,-0.0267227,0.00612841,0.127405,-0.184172,-0.0226604,-0.0781587,-0.0966437,-0.0441737,0.0961355,0.159788,0.15972,0.240926,0.134988,-0.155316,0.0116156,-0.092204,-0.0703854,0.0630407,0.000404564,-0.0133711,0.0129391,0.0173544,-0.0062609,0.0193434,-0.0459336,0.0122597,-0.0283356,0.0572421,0.0100192,-0.0637659,0.0330164,-0.0723623,-0.0325105,0.0321172,0.0167735
0.147931,-0.264077,0.103573,-0.0589281,-0.0867541,-0.0487698,0.0913419,0.0651755,0.0202654,0.0743013,0.235723,0.00682041,0.0228392,0.00263858,-0.0833226,0.0124864,0.0389813,0.0499288,0.0424138,0.0415373,0.0398156,-0.0213336,0.0370598,0.0134684,0.0636038,-0.0110573,0.0462492,0.0407569,0.0593266,-0.0231029,0.00391799,-0.0243473,0.0274468,0.0533662,-0.0307168,0.0250954,0.107086,-0.159169,0.00122326,0.029236,0.0356433,0.0412985,0.0423954,0.0536988,0.141496,-0.0333987,-0.293583,0.148589,-0.0397083,0.0014893,0.010539,0.0393363,0.0138287,-0.00300607,0.00439619,-0.0123122,-0.00252488,0.00855043,0.0140834,0.0524145,0.0652215
-0.115504,0.171831,0.0334468,-0.0785004,0.11252,-0.0511606,0.185456,0.0602171,-0.134138,0.0909702,0.0124643,0.00530103,0.133008,-0.00666484,-0.0224901,0.124754,0.0258305,0.0863915,0.089352,0.0762241,0.110268,-0.0565069,0.0881923,-0.101211,0.00819606,0.125715,0.00728602,-0.00480209,-0.0312217,0.0763867,0.0640315,0.0549729,-0.0215748,0.0210601,-0.0841398,0.0884139,0.212236,-0.0220554,-0.206012,-0.0268999,-0.0362677,-0.0310987,0.0399776,0.0108086,-0.0281155,-0.0224566,0.0547611,-0.04066,0.0260039,0.000640104,-0.00739303,-0.0127196,0.00579675,-0.0191731,0.0220059,-0.0118111,-0.00678759,-0.028375,0.0217373,0.032637,0.0168148
-0.0925426,0.137225,0.0433447,-0.08702,-0.0611366,0.152244,0.1413,-0.166209,0.17277,-0.12734,0.177681,-0.0403668,0.0923547,0.00481168,0.148813,0.0329973,0.00879221,0.0315174,0.0346337,0.114462,0.038555,-0.0691619,0.201256,0.067865,0.0924874,-0.0973658,0.00454666,0.0393884,0.04551,-0.0787234,-0.11095,-0.0578112,0.00418725,-0.0205448,0.0558305,0.0302208,-0.0275494,0.095721,0.0922994,-0.0463539,0.00312882,-0.0155197,-0.0423785,0.0163201,-0.0111389,-0.00410707,0.00771103,0.0124826,-0.0137013,0.0104392,-0.00672921,0.00839471,0.00548298,-0.0112807,0.00997658,0.0124763,-0.0174377,0.0281985,0.0109994,-0.00372114,0.0193793
0.140395,-0.302107,0.0151296,-0.0522212,-0.11852,-0.0524789,0.00840421,-0.00840215,-0.0306876,0.0195977,0.166546,-0.0700619,0.0605375,0.0501958,-0.0135318,0.09129,0.0672491,0.0688013,0.0486689,0.100886,0.0281835,-0.0293162,0.0348263,0.0122223,0.0260048,0.016897,0.0071479,-0.00445078,-0.00666891,0.0787545,0.0991098,0.0358173,-0.0490475,-0.0493069,-0.0407049,0.0427891,0.00438292,0.0934241,-0.0543078,-0.0644145,-0.0369618,-0.0279538,0.00962528,0.0982503,0.105818,-0.0148693,-0.309977,0.135521,-0.0275211,-0.000594469,-0.0106859,0.0269326,-0.00989969,0.00958597,-0.0234606,-0.0212618,0.0196352,0.000600612,0.0150075,0.0136135,0.00193558
-0.119939,0.147327,-0.0414418,-0.0812853,0.0905612,-0.0454357,0.102426,-0.00483181,-0.202078,0.0731675,0.0228809,-0.0408128,0.169884,0.0170501,-0.058055,0.107135,0.0307617,0.0983272,0.0945077,0.110818,0.0613671,-0.0459218,0.0977777,-0.0611056,0.0287725,0.0918108,0.0406358,-0.0122709,0.0950853,0.0611516,0.183385,-0.0115934,-0.0623467,0.0062604,-0.0742267,0.0738631,0.220694,-0.0838612,-0.0790832,-0.00619709,-0.00591066,-0.0240501,0.0422745,-0.0121167,-0.0204537,-0.00911876,0.0787166,-0.0469522,0.020426,0.01355,0.00401905,-0.0163927,0.00790231,-0.0167803,0.00321769,0.0222274,-0.0117173,-0.00275768,-0.0215868,-0.0225493,0.00134765
-0.100099,0.118422,-0.0218207,-0.0922831,-0.0770734,0.147358,0.0815926,-0.233736,0.136732,-0.149918,0.181043,-0.0705041,0.100151,0.00724975,0.142269,0.0533884,0.0399366,0.0485727,0.0181597,0.108946,0.0803188,-0.0893541,0.184098,0.0402079,0.0756094,-0.0955467,0.0197575,0.0404257,-0.0440384,0.0404662,-0.106091,-0.00433389,0.070003,0.0107399,-0.00715151,-0.0739235,-0.128376,-0.0586945,-0.00197188,0.0448164,0.000670095,0.0487493,-0.00313534,-0.0267926,-0.00124259,-0.000109349,0.00467225,-0.00212811,-0.0161624,0.0110469,0.00876195,-0.0014603,0.00342459,-0.0256743,0.00308791,0.0385643,-0.00732559,0.00886171,-0.0355793,-0.0220562,-0.0186189
-0.0422247,0.127162,0.0119994,0.106002,0.0837059,0.00313468,-0.427157,0.23931,0.117339,-0.00910082,0.463518,-0.17763,-0.147796,0.0400963,0.0581713,0.149356,0.290247,0.0679244,0.066602,0.176846,-0.00183622,0.218908,-0.0923475,-0.0155074,0.0165902,0.426729,0.00499116,0.0623718,0.00997701,-0.0570267,-0.107885,-0.0421029,0.035345,0.020961,0.0590547,0.04517,-0.015276,0.0144574,0.020962,0.0545052,-0.0139664,0.00481214,-0.0116485,-0.022582,-0.0446531,0.0277001,0.106693,-0.0395487,0.0141061,-0.00193011,0.0255,-0.0178656,-0.00927401,0.00649613,-0.00665017,-0.0140577,0.0113812,-0.00269242,0.0120314,-0.000621045,0.00602432
0.196366,-0.404606,0.0538002,-0.0671559,-0.151649,-0.0471412,0.129652,-0.0277856,0.0255944,0.000409679,0.104993,-0.0126973,0.0427459,0.0301201,-0.0152487,0.0433904,-0.0276765,0.0587785,0.0581676,0.0303813,0.0262589,-0.0757477,0.0204762,-0.0520548,-0.00954154,0.0521582,-0.00688913,-0.019055,-0.0681216,-0.0700894,-0.0345735,0.00439708,0.00420845,0.0274465,0.0273705,-0.0123839,0.0088931,0.0213514,0.0125424,0.0265943,-0.0016364,-0.0146593,-0.0250406,-0.125214,-0.197352,0.0236798,0.503049,-0.234435,0.0574561,0.00641417,-0.00669054,-0.0738769,-0.00757126,0.0331497,0.0205277,-0.0171567,0.0126493,-0.00580757,0.0377362,0.00427856,0.0256975
-0.104652,0.210873,-0.0439229,0.00638017,0.181252,-0.0628675,0.0900556,0.0968903,-0.396842,0.0946063,-0.0741989,-0.0611449,-0.0777573,-0.130588,-0.0135076,0.0884631,0.175934,0.0365141,-0.0758803,0.061126,0.0202449,0.0177187,-0.0338359,0.24794,0.0699923,-0.0749281,0.0145804,0.0141082,-0.00984536,-0.0650653,-0.189157,-0.0552025,0.0307784,-0.00546515,0.0878579,-0.0725004,-0.252468,0.0506971,0.109317,0.00210875,0.0122466,0.0403882,-0.063941,0.0283946,0.0944034,-0.0271093,-0.238327,0.10902,-0.0274633,0.0199296,0.000406453,0.0352914,0.000385008,0.0147295,-0.00817336,0.0224515,-0.0012002,-0.0128165,-0.0259889,0.0362696,0.0304593
-0.102655,0.202346,-0.0267146,0.0816614,-0.0323542,0.121696,-0.254497,-0.0810006,0.37977,-0.127879,-0.038138,0.0485802,0.0268744,0.0887207,0.0270144,-0.140371,-0.148941,-0.100248,0.0118341,-0.100661,-0.046583,0.0661393,-0.0128136,-0.206771,-0.0625064,0.029358,-0.0074545,0.0135637,0.080646,0.114244,0.206237,0.0481742,-0.0328424,-0.0294618,-0.0822056,0.0805686,0.220122,-0.0762002,-0.112783,-0.0478886,0.0120469,-0.0191586,0.0527086,0.0706789,0.107783,-0.0376668,-0.218701,0.0723708,0.0167617,-0.0239954,-0.0252476,0.0240794,0.0257981,0.0233888,-0.00659358,0.0109218,0.0132209,-0.0120968,-0.0261482,0.0373355,0.0315989
0.00461362,0.0381557,0.0790102,-0.0055178,0.0320592,0.00641689,0.0810523,0.0776393,0.0558701,0.054121,0.0669811,0.0769248,-0.0385921,-0.0428188,-0.0688913,-0.0833242,-0.0229715,-0.0228405,-0.00127019,-0.0606837,0.0133813,0.0196701,-0.00106211,-0.00151481,0.0222985,-0.0400482,0.0274168,0.0611727,0.0407214,-0.126413,-0.135077,-0.0490476,0.0822477,0.0949673,0.0221069,0.0114344,0.131012,-0.231797,0.0298007,0.0776705,0.117971,0.113327,0.0420884,-0.0289083,0.119161,-0.0260397,0.0586104,-0.00629054,-0.0531767,0.034459,-0.03621,-0.0250224,-0.0235642,0.0619733,-0.0162986,0.0424412,0.00769129,-0.0166791,-0.100771,-0.0454646,0.0121429
0.0096241,0.0266174,0.0977882,0.00702937,0.0249677,-0.00390384,0.118486,0.0969591,0.106843,0.0235455,-0.0186137,0.0688172,-0.0572751,-0.0219534,0.0569767,0.0290133,-0.0100074,-0.0226957,-0.00405181,-0.0573973,0.0708049,0.000655962,-0.016281,-0.0553381,-0.0336118,0.0449067,-0.0631819,0.0166605,-0.199496,-0.000154318,-0.228792,0.108775,0.064018,0.022289,0.00569302,0.0392387,-0.00996011,0.122414,-0.265921,-0.0513497,-0.0336973,0.00996109,-0.0030917,0.0424357,0.017565,-0.0366859,-0.057943,-0.0181417,0.0426452,0.0025487,-0.0670704,0.00290378,-0.0366848,0.0235716,-0.11034,0.0040007,-0.0119062,0.167617,0.0275598,-0.0869352,-0.0200475
0.00824225,0.0225359,0.0776999,0.00546905,0.0206698,0.00615254,0.0817462,0.0866412,0.0533453,0.0295308,-0.0050048,0.0405627,-0.0127976,0.00299593,0.0117899,-0.019515,-0.0394949,-0.0196606,0.0246413,0.00644943,-0.0538727,0.0375048,0.0202612,0.0383434,0.0175364,-0.00945504,-0.0295079,0.0104399,0.116494,-0.183427,-0.0358927,-0.0716905,-0.0911347,-0.0437051,0.0955064,0.156354,0.163933,0.241737,0.124979,-0.162956,0.0221527,-0.0872203,-0.081471,0.0614681,0.0140498,-0.0192978,0.0206699,0.00896049,-0.0110348,0.0339915,-0.0608286,0.0131687,-0.0448061,0.0762873,0.0150492,-0.0623731,0.0539629,-0.137792,-0.0977453,0.0255489,-0.0182174
0.0576163,0.141249,0.214482,0.0853733,0.0787333,-0.00539235,-0.0845697,0.196368,0.0832362,0.175447,0.286806,-0.0120098,-0.100056,0.0859855,-0.100377,0.0716769,0.0776659,0.046979,0.0725129,-0.164665,0.00700101,0.136586,0.10782,0.277398,-0.0854571,-0.616021,0.0739676,-0.11623,-0.00610993,0.224751,0.194436,0.0659998,-0.0149194,-0.023365,-0.116881,-0.00295407,-0.0253187,0.0418876,-0.105653,-0.0831065,-0.00461923,-0.0347039,-0.015343,-0.00952771,-0.0516183,0.00179155,0.132689,-0.100841,0.0404679,-0.0178094,0.000183382,-0.0200359,0.0151292,0.00159093,0.0236603,0.0116457,-0.00415517,0.01305,0.0287441,0.00296698,-0.011235
-0.0410191,0.102385,0.237451,-0.0440753,0.0375824,-0.059627,0.18045,0.0692284,0.149949,0.0989162,0.0788891,0.00927665,0.179624,-0.077455,-0.164215,0.092597,-0.0406298,0.0377791,0.118972,-0.148551,0.223959,0.109481,-0.0890004,-0.479974,-0.129575,0.05202,0.150432,-0.0916431,0.025112,-0.0274952,0.178617,0.0315495,-0.116971,-0.0805264,0.224841,-0.107558,-0.436605,0.0476036,0.224181,0.042699,0.0822999,0.0233021,-0.0359931,0.0107399,0.0288774,0.0401514,-0.0310527,0.0565574,0.000108983,-0.0201201,0.0515119,0.0134612,0.0056171,-0.00811645,0.0255404,0.0170948,-0.00734956,-0.0150782,-0.0301107,0.00466139,0.0023417
-0.0106458,0.0838441,0.251322,-0.101091,-0.0774889,0.13305,0.386374,-0.142632,0.00481567,-0.0427176,0.110307,-0.221322,0.100114,-0.084522,0.0333036,-0.101182,-0.0160421,-0.0142562,-0.0731697,0.0734953,-0.401665,0.298024,-0.457461,0.225071,-0.192661,0.155222,-0.0532316,-0.0028607,-0.0175322,0.115166,0.126458,0.0410367,0.032055,-0.0135724,-0.0519194,-0.0572845,0.0418168,-0.0164127,-0.0404711,-0.00693111,-0.0273112,0.037668,0.0139801,-0.0308915,0.0037674,0.00929042,3.52553e-05,-0.00883936,-0.00407584,0.00588899,0.0246442,0.00555403,0.0265636,-0.0114704,0.0118225,0.0236449,-0.0182041,0.0206628,-0.00404884,0.000573551,0.0141765
-0.00685739,-0.0833282,-0.115566,-0.069151,-0.0101074,-0.0195098,0.0479702,0.0950332,0.0410477,-0.0347789,-0.044739,0.0646877,0.124313,-0.122171,0.063196,-0.0601751,0.146202,-0.169777,-0.148334,0.0223662,0.0717636,0.255139,0.117819,0.00464815,0.0273024,0.00857615,0.0999106,0.0435833,0.0680207,0.0554814,0.023063,-0.0081647,0.0132742,0.0205619,-0.0286756,-0.0342823,-0.0054342,0.0295951,-0.0478877,-0.0359887,0.0933593,0.0152889,-0.0160782,0.017359,0.0162664,0.0119441,0.011685,-0.0328303,0.0467176,0.0326674,0.105747,-0.0630088,0.00850768,0.035756,0.0958634,-0.0297757,0.0233476,0.115989,0.0367448,0.271131,0.0380022
0.0169386,0.0813124,0.105005,0.0656183,0.00880166,0.0168009,-0.0495742,-0.0977349,-0.0460748,0.0267124,0.0411178,-0.0610467,-0.117214,0.120118,-0.0623541,0.0616639,-0.145735,0.161237,0.144385,-0.0197537,-0.0658637,-0.247029,-0.123978,-0.00696862,-0.0208488,-0.00774778,-0.0835536,-0.035294,-0.0588451,-0.0476772,-0.0384587,0.00799374,-0.0176031,-0.0255598,0.0383266,0.0262116,0.010921,-0.0238151,0.0415579,0.0156851,-0.0422428,0.0104377,0.0290211,-0.0120837,0.00140728,0.00762687,-0.0196407,0.0195567,-0.0321206,-0.0227799,-0.0415041,0.0238063,0.00489528,-0.0157095,-0.027115,0.00784886,-0.00958231,-0.0331736,-0.00580411,-0.0716152,-0.0111602
-0.0266665,-0.0791994,-0.0947883,-0.0623575,-0.00761806,-0.0141573,0.0512558,0.100605,0.0512959,-0.0195312,-0.0381688,0.0566366,0.110494,-0.118694,0.0610837,-0.0633455,0.145702,-0.152576,-0.140501,0.0173443,0.0603251,0.239272,0.130551,0.00873648,0.0144727,0.00764144,0.0674862,0.0271117,0.0495325,0.0387093,0.053911,-0.00775881,0.0219427,0.0307171,-0.0476069,-0.0184661,-0.0163286,0.0172206,-0.0351849,0.00405951,-0.00905326,-0.03611,-0.0428287,0.00665811,-0.0175814,-0.0270057,0.0263737,-0.00735296,0.0183331,0.013224,-0.0234684,0.0159738,-0.0171198,-0.00277894,-0.0405522,0.0159779,-0.00490207,-0.0511044,-0.0280622,-0.131601,-0.0181833
0.036009,0.0769932,0.0849491,0.0593826,0.00656273,0.0115867,-0.0530115,-0.103641,-0.0567041,0.0132726,0.0359111,-0.0514539,-0.104173,0.117916,-0.0593797,0.065218,-0.146112,0.143811,0.136693,-0.0151486,-0.0551698,-0.231894,-0.137529,-0.00993637,-0.00819112,-0.00827401,-0.0517596,-0.0190592,-0.0401028,-0.0285728,-0.0693847,0.00745941,-0.0262813,-0.0360283,0.0564898,0.0110707,0.0216375,-0.00980925,0.0287862,-0.0231826,0.0604071,0.0616622,0.0574755,-0.00109454,0.0321787,0.0461485,-0.031854,-0.00373171,-0.00540392,-0.00403282,0.0890246,-0.0562447,0.0281193,0.019633,0.10695,-0.0416609,0.0201104,0.13666,0.0648235,0.338097,0.049993
0.0192689,0.0206351,-0.273814,-0.150883,0.0679769,-0.00450872,0.110854,0.193339,-0.0499822,-0.139072,0.145075,-0.0952097,-0.0226453,0.0831732,0.0546572,-0.0428844,-0.0978762,-0.0853689,0.0550116,-0.102412,-0.0322592,-0.0623975,-0.0427461,-0.0110523,-0.0155375,-0.0141783,0.0104068,-0.0276061,-0.00185166,-0.0349193,0.00887731,0.0540147,0.00849699,0.0312546,-0.00371997,-0.0106803,-0.0240052,0.0200786,0.0181279,-0.0905249,0.116524,0.0937471,0.0621338,0.0653161,0.0268106,0.169951,-0.033598,-0.0511237,0.0795827,-0.35806,-0.0275455,-0.046089,0.253156,0.0599861,0.158042,-0.184696,0.144508,0.103531,-0.104123,-0.182517,-0.00675816
-0.00713206,-0.0164613,0.257274,0.140824,-0.0652162,0.00520548,-0.105737,-0.201867,0.0379398,0.123442,-0.149607,0.0871774,0.0182254,-0.0928518,-0.0471273,0.0491543,0.113576,0.083268,-0.0471529,0.107521,0.0468241,0.060201,0.0287193,0.017717,0.0254016,0.012687,0.000523012,0.0244846,0.0309864,0.000321824,-0.00602761,-0.0338397,-0.0024554,-0.00703221,-0.00105436,0.00611337,0.020731,-0.011353,-0.0360975,0.0332977,-0.0515238,-0.0249421,-0.0404112,-0.0254888,-0.0047436,-0.0635269,0.0150003,0.00296175,-0.0227312,0.134374,0.00795666,0.0165762,-0.0768704,-0.0181794,-0.0432176,0.0602619,-0.0432148,-0.0294386,0.0351163,0.0595179,0.00179347
-0.00495708,0.0122523,-0.240395,-0.130578,0.062214,-0.0060957,0.100327,0.210647,-0.0255043,-0.108162,0.153758,-0.0796654,-0.0137431,0.102246,0.0392142,-0.0557508,-0.129467,-0.0809279,0.0393596,-0.112238,-0.0613149,-0.0581001,-0.014801,-0.0247079,-0.0352945,-0.0113377,-0.0111079,-0.0212905,-0.060643,0.0342277,0.00317751,0.0133401,-0.00403026,-0.0179194,0.00633832,-0.0021007,-0.0170555,0.0014516,0.054625,0.0246921,-0.0147362,-0.045283,0.0184489,-0.0153042,-0.0166934,-0.0443855,0.00328205,0.0450073,-0.0343192,0.0943087,0.0118122,0.0137099,-0.102389,-0.0235282,-0.0725816,0.0676941,-0.0613562,-0.0474496,0.0348393,0.0660057,0.00268691
0.0169439,-0.00804309,0.22354,0.120342,-0.059052,0.00719061,-0.094752,-0.219903,0.0127545,0.0934534,-0.157686,0.0728224,0.00924012,-0.11142,-0.0309952,0.0627201,0.145617,0.0784527,-0.0317133,0.116641,0.0757327,0.0561703,0.00108248,0.0320193,0.0452034,0.0101715,0.0212913,0.0180588,0.0907755,-0.068588,-0.000323042,0.00738873,0.0109475,0.0435227,-0.0121315,-0.0013112,0.0129892,0.00962804,-0.0737005,-0.0832127,0.0820052,0.116706,0.0035895,0.056919,0.0373976,0.153346,-0.0211821,-0.092533,0.0913032,-0.327167,-0.0317087,-0.0446847,0.284047,0.0649354,0.188923,-0.198728,0.168782,0.126926,-0.105476,-0.193658,-0.00662626
0.005084,0.0127143,-0.217639,-0.108732,0.0188655,0.041659,0.0261129,0.000150264,0.187155,0.0300668,-0.025426,0.184679,-0.0357475,-0.107045,-0.129809,0.108874,0.0884688,0.207276,0.00154871,-0.00120126,-0.092124,-0.0412398,-0.0738196,0.0611462,-0.00911947,0.0217066,0.0557915,0.00622956,-0.0312997,-0.0190811,0.0418395,-0.0271534,-0.0152146,0.00950425,-0.00466622,-0.0051631,-0.0174099,0.0170827,-0.0374473,-0.0649342,0.046968,0.045562,-0.000176311,-0.0139092,-0.0131641,0.0533613,0.00847722,-0.0389963,-0.0636833,0.0461193,0.00228263,0.140434,0.105519,0.0414778,0.0901165,0.0530582,-0.0210203,0.12,-0.0136519,0.238344,0.0502716
0.00157862,-0.0098586,0.20786,0.105822,-0.0146525,-0.0442224,-0.0350491,0.00199299,-0.184948,-0.0311697,0.0209,-0.180215,0.0486623,0.106468,0.131987,-0.109113,-0.0921834,-0.199521,0.0103459,0.0101611,0.0911368,0.0443695,0.0723865,-0.0697439,0.00897335,-0.0182221,-0.042645,-0.00137046,0.0187647,0.0223695,-0.0533804,0.0186533,0.0244534,0.00577194,-0.012154,-0.0119097,0.0223058,-0.0157053,0.0386668,0.0266217,-0.0198972,-0.0334676,0.00318094,0.017881,0.00691145,-0.0203778,-0.00346119,0.00829434,0.0373136,-0.0288582,0.00828087,-0.0449583,-0.0371193,-0.00506449,-0.0249685,-0.0132887,0.00865491,-0.0363272,0.00533168,-0.0751376,-0.0168724
-0.00811092,0.00702624,-0.198205,-0.10302,0.0102969,0.0467647,0.044083,-0.00404171,0.18292,0.0319332,-0.0166179,0.175486,-0.0617225,-0.106208,-0.134583,0.109457,0.0961094,0.192147,-0.0222412,-0.0190294,-0.0901645,-0.0477041,-0.0709676,0.0783132,-0.00875403,0.0146592,0.0296823,-0.00351375,-0.00618148,-0.0260071,0.0650298,-0.00987308,-0.0338778,-0.0212914,0.0291924,0.0288367,-0.0274052,0.013822,-0.0400112,0.0120694,-0.0073311,0.0218442,-0.00601946,-0.0221258,-0.000414421,-0.0126475,-0.00233706,0.0217991,-0.0100107,0.0113692,-0.0191946,-0.0513295,-0.0320498,-0.0312123,-0.0399471,-0.0261677,0.00311824,-0.048222,0.00312378,-0.0903041,-0.0177239
0.0144944,-0.00422065,0.188591,0.100273,-0.00580273,-0.0492514,-0.0531575,0.00597332,-0.180987,-0.0323316,0.0125734,-0.170399,0.0748739,0.106211,0.137533,-0.10985,-0.100204,-0.185077,0.0340917,0.027779,0.0891577,0.051206,0.069533,-0.0867936,0.00845313,-0.0110327,-0.0169219,0.0084026,-0.00643005,0.0299802,-0.0767209,0.000814805,0.0434464,0.0370092,-0.0463919,-0.045537,0.0326605,-0.011443,0.0414525,-0.0510607,0.034634,-0.0107059,0.00868354,0.0266548,-0.00634375,0.0456553,0.00887447,-0.0511663,-0.0181766,0.00625979,0.0304159,0.148231,0.101843,0.067225,0.104467,0.0652554,-0.0142222,0.133434,-0.0117853,0.257593,0.0535477
0.0388504,0.000479365,-0.24036,0.648137,-0.261834,0.508001,0.205289,0.16877,-0.157182,0.14034,0.10627,0.042241,0.0661618,-0.110221,0.0818728,0.101202,-0.0107536,0.0422396,-0.0444306,-0.0125689,-0.031813,-0.0291583,-0.000865547,-0.149349,-0.0229707,-0.0208654,0.025979,-0.0102516,0.0146438,-0.00172361,0.027011,0.013597,-0.0051961,0.00439001,-0.00649259,-0.0187382,0.0249234,-0.00553013,0.000291654,0.00217346,-0.00248565,0.00868992,0.000228558,0.00571451,0.00268808,0.0081229,-0.0034142,-0.00182973,-0.00111905,0.000419352,0.00437349,0.00106289,0.00560273,0.000438571,0.00510272,0.000716405,-0.00057601,7.20468e-05,0.000743257,-0.000300099,-0.000797854
0.0704093,-0.145523,-0.136673,0.485074,0.616488,-0.312164,0.161042,-0.249144,0.219538,-0.0831381,0.14725,-0.0494162,0.207558,-0.0571033,0.0108693,0.0417367,-0.0550681,-0.0522873,-0.0586337,-0.0032596,-0.0051403,-0.0469652,-0.0424522,0.103991,0.0205813,0.0100861,-0.0160173,0.0121951,0.0041508,-0.0270936,0.0194909,0.00052195,-0.00382295,-0.00434261,-0.00546507,0.00111413,-0.000589062,0.00139135,-0.00636837,0.0161593,-0.00505492,-0.00521441,0.011775,0.0099737,0.00412453,-0.00183117,-0.00234705,0.00285855,0.00268478,0.00156724,-0.00366278,-0.000274167,-0.000459917,-0.00201322,0.00137617,0.00392672,-0.00274872,-0.000291882,0.00125639,-0.00388768,-0.00147141
0.049997,-0.248201,0.186409,-0.181484,0.545198,0.660838,-0.0655831,0.0331299,-0.0702156,-0.0824825,-0.0999785,0.047004,0.0334823,0.234841,-0.0927312,0.0360069,0.135598,-0.0478164,-0.0916007,0.0280461,0.0128474,-0.0389022,-0.0179463,-0.0722691,0.00376146,-0.00327379,0.0215926,-0.0147521,-0.00832901,0.0121899,0.00726173,-0.00625793,-0.0103266,-0.00226753,-0.00069295,0.00209144,-0.00849095,-0.0056649,0.00621774,-0.00394284,0.00219882,0.00577929,0.00172054,-0.0141577,0.00423972,0.00454616,-0.00663213,0.000957849,-0.000823951,0.000467995,-0.00143483,0.00148508,-0.00202015,2.22055e-05,-0.00114231,0.00270071,0.000908543,-0.00291111,-0.00272799,0.00136856,0.000678368
-0.000117575,0.00375334,-0.00347535,0.00194856,0.00319328,0.00977507,-0.00874003,-0.0173112,-0.0177561,0.000432379,0.0177409,-0.00692283,0.0260808,-0.0312635,-0.0454497,-0.0458813,-0.00532697,0.0189024,0.022238,-0.0451025,-0.0900408,0.0938886,-0.0626866,-0.0809004,0.584769,-0.0559571,-0.199714,-0.0894346,-0.174359,0.239429,0.197212,-0.0357589,0.139875,0.416483,0.483315,0.0165741,0.0642409,0.0703838,-0.00950142,-0.0411576,-0.0389969,0.00728026,-0.0187946,0.0308714,0.00345453,0.00838236,0.0129881,0.00477232,-0.00118024,-0.00727185,0.0027195,0.00310897,-0.00548779,-0.0137081,0.0126158,0.00647209,-0.0058196,0.000778727,0.00833073,-0.00339677,-0.0073173
0.000619513,-0.0112557,-0.0139544,0.00843736,-0.00745608,-0.00442719,-0.0168531,-0.00701055,0.017105,-0.0187834,-0.0483569,-0.0295528,-0.0131936,0.0347784,0.0877829,0.0635746,-0.00567646,-0.00201638,-0.0467481,0.0723436,0.0615904,-0.103347,0.0957277,0.122018,-0.53959,0.0223655,0.0768849,0.0861097,0.0396242,0.145581,-0.0237673,-0.0256865,-0.318829,0.644936,0.273075,0.0490533,0.0124675,-0.0185732,0.0139934,-0.017814,-0.0334696,-0.00712432,-0.0127126,0.017809,0.0671516,0.0504843,-0.00549023,0.0208272,0.00244924,0.0026151,-0.00913687,0.00796445,-0.0300353,-0.018437,-0.00676309,0.00939859,-0.00524487,0.0113749,0.013934,0.000461889,-0.00206218
0.000258429,-0.00540366,0.000900414,0.00383535,0.00247537,-0.0176525,-0.000774179,0.0135254,-0.00119474,0.00642014,-0.0365543,0.00452558,-0.0127357,0.0342544,0.0437481,0.0646053,0.00295517,-0.00744738,-0.0451853,0.03682,0.0794842,-0.129284,0.0875553,0.0705785,-0.351162,0.049254,0.105564,0.00530183,0.0184237,0.0332919,0.217354,-0.115642,0.763187,-0.161218,0.339655,-0.0228127,0.119715,0.0693659,0.0362251,-0.058282,-0.00902644,0.0148739,-0.00659552,0.0204316,0.0124005,-0.012804,-0.0187104,-0.0208373,-0.0192727,-0.00614988,-0.00420752,0.0168522,-0.00250204,0.000350828,-0.00331013,-0.0205821,0.0011224,-0.00416492,0.00635326,0.00548643,0.00325699
0.176457,0.0677992,-0.0754623,-0.0324616,0.00438014,0.0256615,-0.0215116,-0.0940223,-0.0273647,0.0639686,-0.00969787,-0.01015,0.0453884,0.028199,0.0284445,0.00672041,0.0291464,-0.0225576,0.0351291,-0.0382363,0.0416782,0.118499,0.0422483,0.0189749,-0.0437583,0.00458838,-0.0425,-0.0295687,-0.0813548,-0.0302373,-0.0252976,0.0432222,-0.0454893,-0.0716089,0.0902796,0.0499214,0.0494486,0.0274865,-0.000710489,0.032699,0.0165051,0.0549879,0.0944645,-0.049471,0.0386365,0.023221,-0.0127808,-0.00515657,-0.0506773,0.0411233,-1.80924e-06,-0.0789203,0.000353516,0.013186,0.00947539,-0.0231913,0.00921874,0.0606019,-0.150193,0.170026,-0.228898
0.185036,0.071518,-0.0733114,-0.0399279,0.00608399,0.0139003,0.0208644,-0.0123022,0.0164667,-0.0513118,-0.0297159,-0.12865,-0.048106,-0.0372879,0.0152128,-0.00680551,0.0478978,-0.00968955,0.00514338,0.0585673,0.145724,-0.0200156,-0.156791,-0.0762574,0.0106461,-0.0973747,-0.0395464,-0.00101084,0.143698,-0.0560853,0.0168012,-0.0411387,0.0117132,0.0240639,-0.00569862,0.00932064,0.023573,0.00525121,-0.0751244,0.0173916,-0.00839447,0.132332,-0.113439,0.0702057,0.0339266,-0.0152468,-0.0374429,-0.14672,0.129464,0.0613224,-0.108785,0.0236947,-0.0322061,-0.0930452,0.0447043,0.0709142,-0.00800108,-0.0119929,0.0483365,0.0139173,-0.0274614
0.116335,0.0483793,-0.0540573,-0.0224536,0.0207367,-0.00692434,-0.0484642,0.0445423,0.0517217,0.0595122,-0.0629834,-0.00615447,0.144492,0.00409503,-0.0547119,0.00349731,-0.0241386,0.0501922,0.0767184,0.14436,-0.0839675,0.0325322,-0.0214283,-0.0671679,-0.0309101,-0.0617673,-0.000137157,-0.00727208,-0.0372687,0.0743733,-0.149491,-0.00725168,0.0715902,0.0479444,-0.0674479,-0.102422,0.0343288,-0.0044866,0.0937705,-0.0376093,0.00933754,-0.0652445,0.0230208,0.0825824,-0.00662555,-0.0187121,0.024946,0.0312998,0.0626343,0.0066355,0.0608191,0.212711,-0.0177592,0.137144,0.0758646,-0.0541732,-0.116937,-0.0217823,0.0150087,-0.0597725,-0.0585379
0.17887,0.0686479,-0.0778754,-0.0315932,0.00648842,0.0251616,-0.0270982,-0.0956124,-0.0274506,0.0672802,-0.00622641,-0.0166664,0.0355071,0.0358958,0.0274378,0.00408935,0.031766,-0.0193933,0.0400209,-0.0478039,0.049822,0.104101,0.0382704,0.0150357,-0.0338214,0.0155745,-0.0337727,-0.0227898,-0.0458142,-0.0335484,-0.0217043,0.0417464,-0.0513634,-0.0555234,0.0759386,-0.050853,0.0602215,0.0933594,-0.019758,-0.00648968,-0.000229745,0.0948895,0.120331,-0.0680784,0.125496,-0.0731605,0.0562775,0.0459441,-0.0925964,0.0168407,0.0154353,-0.0801497,0.0353966,0.00507984,0.00175921,0.0124354,0.0154607,0.0428842,-0.125653,0.12536,-0.181924
0.192185,0.0740331,-0.0751735,-0.0370152,0.00428619,0.0124922,0.0135692,-0.0115782,0.0170219,-0.0470316,-0.0291618,-0.128975,-0.0583405,-0.0305087,0.0140001,-0.00787063,0.0553514,-0.0047003,-0.0131852,0.0583254,0.149567,-0.0199243,-0.13918,-0.0587977,0.0160086,-0.0784983,-0.0342791,-0.00834916,0.11858,-0.0510527,0.0233556,-0.0230572,-0.0248723,-0.00789366,0.00738223,-0.0595478,0.0669132,0.0162116,-0.0208622,-0.00388341,0.0134249,0.246683,-0.0877167,0.125337,0.0646231,-0.0496612,-0.0403457,-0.217488,0.255135,0.0741331,-0.21927,0.0461875,-0.160116,-0.216876,0.0915425,0.118411,-0.0140905,0.0215771,0.0344684,0.0333185,-0.0900191
0.119137,0.0494495,-0.0550301,-0.0208852,0.0210488,-0.00754069,-0.0522206,0.0466806,0.0522539,0.0608141,-0.0630812,-0.0129237,0.133093,0.00702239,-0.054984,0.00263201,-0.0174792,0.040673,0.0709473,0.143948,-0.0785767,0.0264862,-0.0147028,-0.0652157,-0.0284071,-0.0609874,-0.000239155,-0.0093741,-0.0291387,0.0689711,-0.138763,-0.00229542,0.0560504,0.0393636,-0.0631249,-0.120665,0.0395177,0.0120403,0.0740029,-0.0252409,0.000751615,0.00163489,0.0634315,0.0819735,0.00702992,-0.0572113,0.0558431,0.0533636,0.0571356,0.0271089,0.100628,0.348586,-0.0741843,0.169375,0.149223,-0.177389,-0.258584,-0.0171504,0.00215776,-0.0972834,-0.0902227
0.149388,0.0609855,-0.0596894,-0.0354649,0.00340032,0.028915,-0.0042662,-0.0989651,-0.0224566,0.108744,-0.0130062,0.0343664,0.0739382,0.0258259,0.0266205,0.0221746,0.000871312,-0.018082,0.0505191,-0.0633556,0.0175762,0.131153,0.0696251,0.0264195,-0.0551327,0.0039767,-0.0757935,-0.0283065,-0.129293,0.0762484,-0.0414938,0.0111712,0.0382093,-0.0197227,-0.0178773,0.350911,0.0501767,0.182549,0.122348,0.438356,0.204726,-0.0279619,0.0702265,-0.305256,0.00663539,0.28717,-0.231497,-0.183191,0.00249715,0.0191723,-0.103039,-0.0195403,-0.0685577,0.137186,0.188383,0.141432,-0.111184,-0.0543036,0.100838,-0.143591,0.128696
0.119169,0.0483163,-0.0462896,-0.0318214,0.00938379,0.0106635,0.0223009,-0.011471,0.0131569,-0.0117151,-0.018628,-0.0759854,-0.0184535,-0.00774355,0.0226458,-0.000274345,0.0226225,-0.0162838,0.0174732,0.0338087,0.103679,-0.018252,-0.138445,-0.0803403,-0.0283996,-0.094308,-0.0536992,0.0139179,0.142499,-0.00794232,0.00711712,-0.0666022,0.0566458,0.125422,-0.0549891,0.201834,-0.0586532,0.0485937,-0.0616431,0.186807,0.0328393,0.08113,-0.111576,0.163276,-0.340152,-0.35519,-0.111827,-0.101986,-0.269567,0.0980619,0.163361,-0.155749,0.43203,0.252687,-0.121126,-0.0819455,-0.131528,-0.0789826,0.0863324,-0.00115511,-0.0788972
0.0879865,0.0383882,-0.0397158,-0.0224526,0.0131764,-1.47474e-05,-0.0281428,0.0208404,0.0420601,0.0722458,-0.0520595,0.0258324,0.126347,0.0015728,-0.0366561,0.0163204,-0.0185706,0.0579412,0.0489199,0.110493,-0.0739362,0.0341377,-0.022451,-0.0418463,-0.0465265,-0.0527628,-0.0287476,-0.0074658,-0.0537545,0.108597,-0.142172,-0.0307751,0.106552,0.0458277,-0.0788187,0.0474655,0.0198906,-0.00119402,0.170899,0.0325204,0.0431155,-0.0366922,0.00236323,0.131736,-0.136947,-0.00591196,0.071136,0.342527,0.420554,-0.032693,-0.113376,-0.145367,0.189418,0.120572,-0.126969,0.415406,0.386974,-0.0715172,0.120413,0.0734406,-0.0490517
-0.180452,-0.065375,0.0717156,0.02283,0.0044321,-0.020322,0.0244911,0.0620979,0.0276083,0.010608,0.0237034,0.0433734,-0.0451933,0.0187605,-0.032812,-0.0048107,-0.0703195,0.0471997,0.0195756,-0.046355,-0.0406075,-0.142796,-0.0387155,-0.0373632,0.0706212,0.0731118,0.0099521,0.0624685,0.218863,0.157567,0.0338569,-0.121589,0.18206,0.267872,-0.379204,-0.115168,-0.0661072,0.482733,0.0556734,0.278657,0.076694,0.0159578,-0.0309411,-0.143515,0.313891,-0.0998535,0.0812992,-0.0280646,0.0512799,-0.0226517,-0.0428563,0.0525205,0.033747,-0.0726207,-0.0624785,-0.0715815,0.0369587,0.033622,-0.0858706,0.100999,-0.0811973
-0.14722,-0.0562811,0.0573711,0.0344781,-0.00576327,-0.0143341,-0.017871,0.00448414,-0.00801912,0.0623175,0.0253759,0.117898,0.0325331,0.0655886,-0.0167591,0.00961192,-0.0320003,0.0259925,-0.0238724,-0.0619639,-0.133971,0.0225943,0.158445,0.0803951,-0.0268871,0.132706,0.0366291,-0.00867724,-0.160038,0.107503,-0.00463459,0.0521922,-0.0660107,-0.00550889,-0.0191873,-0.0808757,0.0401321,0.0842559,0.257535,0.0565742,0.139318,0.277408,0.196511,0.290236,-0.3109,-0.438976,-0.142431,-0.244887,-0.0476762,-0.0759651,-0.109932,-0.00105373,-0.173198,-0.136292,0.154205,0.0436026,0.114634,0.068618,-0.0798105,-0.0401374,0.0849441
-0.125366,-0.0513626,0.056814,0.0212355,-0.0242639,0.0092979,0.0532743,-0.0564153,-0.0543626,-0.046411,0.0658586,0.0125781,-0.172826,0.00452588,0.0616097,-0.000475859,0.034808,-0.0587183,-0.0976766,-0.159058,0.089029,-0.0494107,0.040852,0.0878786,0.0188595,0.0639776,-0.015583,0.00506703,0.0435543,-0.0567648,0.1817,0.00559279,-0.0708531,-0.0508279,0.05741,0.170067,-0.0388782,0.057004,-0.0940171,0.139661,-0.0531789,0.340321,0.169694,-0.0264403,-0.148907,-0.061763,0.142909,0.464733,0.388221,0.14931,-0.0618735,0.12111,0.0387427,0.152405,0.173969,-0.149675,-0.215641,0.011063,0.00699087,-0.00686022,0.0197652
0.172571,0.0677063,-0.073686,-0.0312713,0.0116025,0.011359,-0.0262754,-0.026391,0.0123106,0.0369655,-0.0336873,-0.0481982,0.0463798,0.00897974,-0.00430812,0.000410226,0.022546,0.00520921,0.0386438,0.0483903,0.0347847,0.047513,-0.0286456,-0.0338582,-0.0196894,-0.0375554,-0.0237777,-0.0153332,0.00358233,-0.00352464,-0.0523761,0.0100773,-0.00738914,-0.0108298,0.0123848,-0.081683,0.0585763,0.0484444,0.0123329,-0.0133175,0.00397218,0.110224,0.0482977,0.0367893,0.0735604,-0.0657568,0.0322306,-0.0233037,0.0540488,0.0376186,-0.0198326,0.105061,-0.0578675,0.00258553,0.0802103,-0.0257624,-0.0906228,0.0183484,-0.041369,0.0266469,-0.133549
0.0838606,0.0340113,-0.0546134,-0.0304811,0.0120411,0.0271919,-0.0143365,-0.081574,-0.00559253,0.112577,-0.00594554,0.0286536,0.0504751,0.0218957,0.0329353,0.00694169,0.00678196,-0.0199314,0.0690199,-0.0285249,0.0677609,0.12326,0.0170405,0.0280173,-0.0502557,-0.0300232,-0.0691935,-0.0514801,-0.0475771,0.0128972,-0.0399681,0.00936486,-0.0135855,-0.0330451,0.0254139,0.0162512,0.0805388,0.113698,0.0608904,0.0884908,-0.0616762,0.120486,0.218458,0.0285757,-0.105995,0.195985,0.0146815,0.110641,-0.0982782,0.0698152,0.123218,-0.0906261,-0.112994,-0.0688246,-0.205798,-0.224276,0.13561,0.0776566,-0.176087,0.107211,-0.00321485
0.0926187,0.035883,-0.0635411,-0.0378757,0.0129788,0.0194357,0.0106994,-0.0210218,0.0284602,0.0141698,-0.0218171,-0.0802435,-0.0276036,-0.0329208,0.0263589,-0.00934909,0.0227037,-0.0155868,0.040524,0.0613469,0.162673,0.00814662,-0.162787,-0.0638864,-0.00937308,-0.123944,-0.080768,-0.0246148,0.148141,-0.033712,0.0112409,-0.0632201,0.02526,0.0372902,-0.0508751,0.00795375,0.0406831,0.0866566,-0.0379642,0.0644885,-0.0931129,0.181502,-0.00334332,0.128819,-0.0759851,0.125458,-0.0030622,-0.0435322,0.0459252,0.0730855,0.0554057,0.0124466,-0.156186,-0.219938,-0.191168,-0.119894,0.126659,-0.0396388,-0.036497,-0.051953,0.369463
0.0412148,0.018181,-0.0314441,-0.0153616,0.0150017,0.000702337,-0.0312965,0.0223294,0.0373007,0.0660874,-0.0376672,0.00924274,0.0985434,-0.00103458,-0.0246797,0.00261204,-0.019297,0.0280814,0.0607234,0.10256,-0.0407246,0.0317924,-0.0158929,-0.0341369,-0.0270251,-0.0664582,-0.0244441,-0.0242809,-0.0331464,0.0640977,-0.107404,-0.0162108,0.0592663,0.0462686,-0.0678891,-0.0812956,0.0367195,0.0382352,0.0943899,0.000947653,-0.022518,-0.00857576,0.0948303,0.0901408,-0.0773438,0.0746167,0.0529134,0.0999839,0.0354352,0.0196198,0.159395,0.197082,-0.0610235,0.0420118,-0.0734379,-0.170312,-0.00452233,-0.000444137,-0.00448506,-0.158545,0.135265
0.184412,0.0709323,-0.0804121,-0.0289646,0.00870053,0.0235282,-0.0354593,-0.0992981,-0.0301723,0.0717298,-0.000312512,-0.0291653,0.0168096,0.04807,0.0257917,-0.00155118,0.0350094,-0.0199774,0.0461098,-0.0671931,0.0667785,0.0807149,0.0410113,0.0135126,-0.0223687,0.0326366,-0.0161001,-0.0144116,0.00893568,-0.0415165,-0.0134564,0.0526446,-0.077323,-0.0489297,0.0721066,-0.235421,0.102471,0.212317,-0.0607578,-0.0831991,-0.0180608,0.169084,0.167533,-0.14368,0.328274,-0.314285,0.218204,0.196501,-0.246176,-0.0995732,0.0644004,-0.083138,0.147641,0.00292542,0.0188254,0.209913,0.0345203,-0.0819731,0.138327,-0.184999,0.219508
