0.00361429,-0.118535,0.11767,-0.573092,-0.165593,0.143685
-0.00146062,0.118941,-0.105369,0.489458,0.347554,0.704779
-0.000528491,0.100763,-0.0847354,0.414406,0.246507,-0.692273
0.443837,-0.290943,-0.0193863,0.263224,-0.309161,0.0133012
0.357469,0.32386,-0.465628,-0.186559,0.0402941,-0.00744163
0.293762,0.449124,0.528515,0.0247684,-0.0234354,0.000314969
0.418499,-0.279636,-0.0332998,0.266348,-0.479294,0.0383896
0.333102,0.35006,-0.490815,-0.19864,0.0267981,-0.00223451
0.244873,0.414772,0.444587,0.0187983,-0.0482801,0.00615098
0.4928,-0.444555,0.178024,-0.211679,0.678597,-0.0406269
