0.122749,-0.187325,0.97233,0.00124426,0.00474758,-0.0186461,-0.0594569,-0.0136761,0.00442273
0.0426891,-0.0573542,0.034584,0.129789,0.219548,-0.208821,0.929412,0.0593518,0.111311
0.0016147,0.0730732,0.0352359,-0.365239,-0.271847,0.0657052,0.103693,0.834766,-0.253843
0.10113,-0.121291,-0.0493586,0.668897,0.473209,-0.0886668,-0.252256,0.469403,-0.0949537
-0.102774,-0.129653,-0.0324999,-0.170912,0.0332253,-0.28682,-0.185628,0.22393,0.84013
-0.622673,-0.274317,0.0325872,-0.204947,0.45903,0.482194,0.0316913,-0.00311387,-0.0711411
-0.213211,0.71246,0.177663,0.33793,-0.129949,0.422407,0.0837761,0.08519,0.303239
0.36904,0.478121,0.0298548,-0.312826,0.501886,-0.0925821,-0.0985651,-0.0954575,-0.144866
0.489075,-0.0896369,-0.0621782,-0.251569,0.283342,0.478743,0.0497078,0.096549,0.296154
0.392113,-0.324461,-0.106113,0.236162,-0.305086,0.461407,0.0600527,-0.0571931,0.0511038
