0.0518492,-0.10832,-0.132727,0.26874,0.0440076,0.931834,0.056671,-0.0116073,0.0853858,0.0673547,-0.0416314,0.0419036,0.0194579,0.0201963,-0.0282785,-0.0374009,0.00868736,0.0125785,-0.0436516,0.00542338,0.0087956,-0.0327162,-0.012595,-0.0026034,-0.00948222,-0.00868569
-0.00291464,0.0418968,0.00599771,0.0870109,0.082927,0.0307781,0.0229674,-0.016049,0.271276,-0.208687,0.190927,0.117847,-0.482535,0.107323,0.351788,0.344276,-0.0229946,0.107276,0.501678,-0.0671282,-0.038915,0.182082,0.0457307,-0.140115,-0.0324676,0.00513511
0.0100606,0.0417242,0.100382,-0.0821916,-0.0634991,0.11152,-0.11773,-0.0911334,-0.264801,0.0139329,-0.0140023,0.0125286,0.0303222,-0.0468567,0.0263407,0.0708989,0.0631913,-0.242469,-0.0867333,-0.268122,-0.183404,0.77749,0.0768858,0.196407,0.168795,0.079832
0.0482506,-0.0463476,-0.151986,0.141512,0.131255,-0.157902,0.209363,0.195678,0.429598,-0.0719292,0.169869,0.349453,-0.174608,0.130822,-0.18661,-0.138468,0.291691,-0.0968852,-0.467259,-0.183596,-0.0435246,0.155048,-0.0863041,-0.0508511,-0.020221,-0.0431045
-0.068477,-0.0603429,0.0139518,-0.0830306,0.0873636,0.0132064,-0.119178,0.0300737,0.0118227,-0.137836,-0.231045,0.160967,0.188698,-0.0225004,0.0896511,-0.123481,0.418039,0.266923,0.147445,-0.115559,0.292449,0.0624608,0.19443,0.0814457,-0.112103,-0.0231412
-0.362437,-0.216705,-0.0739138,-0.265305,0.0342413,0.0729845,-0.0471661,0.267777,0.00584362,0.195525,0.398512,-0.0174587,-0.0774722,0.0213151,-0.095514,0.1011,-0.4119,-0.116834,-0.082495,0.0810926,0.0508758,0.063222,-0.0704784,0.0153879,-0.066931,0.0222389
-0.0704378,0.141983,-0.0929949,-0.0326312,-0.691934,0.0356516,0.325481,0.0567132,-8.27675e-05,0.159122,0.21232,-0.179351,-0.0731826,0.01419,-0.0103707,-0.0470264,0.23291,0.0891311,0.0555895,-0.0135751,0.111509,0.0541519,0.15055,0.018302,-0.079818,-0.105483
0.201647,0.257796,-0.0376162,0.14084,-0.26464,-0.0115634,-0.520275,0.16125,0.233455,-0.0960334,-0.0670103,0.213229,0.183123,0.0216871,0.0397608,0.00293271,-0.266503,-0.058547,-0.0123261,0.0619503,0.257988,0.116117,-0.300879,-0.00125991,-0.0728243,0.0641284
0.246152,0.14833,-0.03217,0.125082,0.254916,0.000961484,-0.451056,0.197891,-0.0997423,0.110592,0.309516,-0.178425,-0.136045,-0.0223011,-0.0802383,-0.0363383,0.120051,-0.00149012,-0.0573621,0.0503229,-0.130281,-0.0896259,0.496889,0.0447693,-0.0152644,-0.291365
0.206073,0.0631534,-0.0262545,0.0831529,0.426609,-0.038988,0.174876,0.0410609,-0.268968,0.245184,0.1723,-0.183431,-0.0785383,-0.0327778,-0.0142941,-0.0365444,0.180986,0.0705956,0.0924307,0.0144158,0.274387,0.10068,-0.384155,0.0035462,-0.108997,0.333934
0.0949927,0.00821857,-0.0119493,0.0366217,0.254503,-0.060817,0.392601,-0.0561851,-0.0441357,0.0506626,-0.138984,0.188392,0.181466,0.0215726,0.0944242,0.025651,-0.316707,-0.0850002,0.0753668,0.0874307,0.199489,0.17779,0.0754929,0.0627235,0.0275439,-0.604846
0.0300268,-0.00435828,-0.000969685,0.0113419,0.0841763,-0.0317825,0.199039,-0.022518,0.0909151,-0.0466748,-0.100724,0.222473,0.10612,0.0488007,0.0401011,0.0209291,-0.224064,-0.0818371,-0.0580086,0.128035,-0.134052,-0.0636206,0.538212,0.122149,-0.104398,0.564407
0.169273,0.161529,-0.0699033,0.0875705,-0.0418535,-0.021661,0.152339,0.14651,0.0540528,0.0442303,0.0942561,0.13227,0.0494686,-0.766375,-0.186149,0.191491,-0.13013,0.289591,0.0128834,-0.0337077,0.0272094,0.0881568,0.0720279,0.059784,-0.06287,0.0460048
0.110422,0.108082,-0.0527642,0.0729422,-0.0599542,-0.0141064,0.0675252,0.0691918,0.0113218,0.0625122,0.0576711,0.0215545,0.0734441,0.0773552,-0.0469427,0.196347,0.235658,-0.591644,0.142956,0.376675,0.34664,0.0211529,0.129798,0.0859968,-0.12813,0.0565783
0.170215,0.167614,-0.0340035,0.0773322,-0.051245,-0.0343778,0.0579384,0.0730415,-0.13603,0.225013,0.0622161,0.0761597,0.231923,0.578869,-0.13653,0.344929,-0.108726,0.443263,-0.0721007,-0.114828,-0.00474652,0.0625734,0.0609242,0.0242137,-0.0569872,0.0416649
0.132371,0.139856,-0.0446543,0.0589849,-0.0392502,-0.0238919,0.0707188,0.0341605,0.0132852,0.08164,0.10231,-0.0938618,-0.124852,0.0753921,0.371057,-0.688385,-0.286723,0.0772585,-0.010022,-0.0454079,0.14121,0.137684,0.116625,0.0473819,-0.102041,0.0778358
-0.342112,-0.223448,-0.042578,-0.282477,0.111112,0.0683237,-0.151921,0.232775,0.0159559,0.014327,0.0777911,0.143515,0.124921,-0.00571798,0.0147441,-0.043444,0.0941673,0.171201,0.0809224,-0.0509321,0.323506,0.108879,0.135819,0.0910214,-0.160049,-0.00566479
0.00565239,-0.1395,0.224629,0.12571,-0.0326368,-0.0100985,-0.0353927,-0.223809,0.0413673,-0.149804,-0.0305793,-0.216386,-0.286313,0.00513763,-0.132793,0.144955,-0.144379,0.122668,-0.337482,-0.000606189,0.592869,0.0477091,0.208178,-0.0634933,0.335504,0.0707717
-0.00113262,-0.0438956,-0.0479685,0.0425075,0.00656209,-0.0366585,-0.00718305,-0.0535757,0.113916,0.0192044,0.13892,0.117698,0.0928172,0.0942038,-0.522284,-0.328407,-0.0194454,0.0754574,0.487431,0.167194,-0.0283,0.132011,0.0350645,-0.0778221,0.488731,0.0848505
-0.000520007,-0.0109928,0.0127426,0.000605036,-0.0351266,0.00336255,-0.0554225,-0.281619,-0.0925938,0.16772,0.469597,0.384998,0.254078,-0.0991351,0.438575,0.0475654,0.139258,0.00275487,-0.123312,0.011612,0.0568895,-0.20018,-0.0209038,-0.0360222,0.400643,0.0344114
-0.00766797,-0.302774,-0.456899,0.31191,-0.102709,-0.140791,0.0187498,0.491582,-0.291304,-0.0718888,-0.218539,-0.0326916,-0.0387305,-0.00651739,0.22547,0.0701255,-0.00752206,-0.00771944,0.0133361,0.00684447,-0.00275647,-0.0142602,0.0206271,-0.0217957,0.358241,0.0577682
0.441136,0.090892,0.165772,-0.624976,0.0149783,0.186017,0.146335,0.390421,0.114959,-0.125523,-0.0560357,-0.0668323,-0.00982201,0.0422176,0.101519,0.0308989,0.0378262,-0.0109186,-0.0350039,0.00803327,0.00914348,-0.0924683,-0.0286209,-0.0106123,0.327418,0.030366
-0.359822,0.479576,0.184013,0.130175,0.0877034,0.0928862,0.11375,0.219084,-0.229704,-0.32514,0.0731656,0.0677455,0.00745334,0.0338,-0.0298727,-0.0468033,0.00229102,-0.00876952,-0.050264,0.0231615,0.0144223,-0.0719226,-0.0239795,-0.0176183,0.0993162,0.00828967
-0.0423058,-0.0278057,-0.0157532,-0.0174277,0.0444467,-0.0667866,-0.0842089,-0.0161224,0.373459,0.602601,-0.275139,-0.115396,-0.0257484,-0.0539491,0.111394,0.0679907,0.0412796,-0.0209366,0.0344906,-0.0634995,-0.00657076,0.0355246,0.0465494,-0.00329952,0.138421,0.0210663
-0.39159,0.437725,0.162871,0.108936,0.129582,0.0233791,0.0262098,0.196545,0.150482,0.286982,-0.204116,-0.0496343,-0.0185134,-0.0211389,0.0824032,0.022558,0.0435035,-0.0294493,-0.0143024,-0.0410164,0.00742914,-0.0342918,0.0232734,-0.0204018,0.234829,0.0290806
0.0943333,-0.105202,0.333718,0.0206352,-0.143152,0.0169835,-0.0290144,0.127354,-0.296214,0.25115,-0.139752,0.426838,-0.275159,-0.00697023,-0.132315,-0.093319,-0.0398522,-0.10149,0.0570702,-0.113923,0.0387421,-0.11489,0.0482081,-0.276866,-0.0799664,-0.129733
0.0634723,-0.125066,0.309897,0.0713351,-0.0886714,0.00425563,-0.0198902,0.115171,-0.164652,0.145614,-0.0610617,0.238889,-0.203657,-0.00951999,-0.00586016,-0.0249598,0.0256326,-0.0142765,0.0672671,-0.0374745,0.00882665,-0.0538984,-0.0260796,0.0522239,-0.0741864,0.177453
0.0390782,-0.151367,0.253508,0.186906,-0.000166521,-0.0378516,0.0710101,0.144284,0.120147,-0.0584164,0.137636,-0.179614,0.289568,-0.0134971,0.0213561,0.0102754,-0.0229219,-0.147716,0.121741,-0.339238,0.0213979,-0.0234538,0.0503681,-0.0858028,0.0031006,-0.0137709
-0.02432,-0.1562,0.303233,0.0941769,-0.0200015,-0.00623961,0.00583521,0.125376,0.0477835,0.0124116,-0.00781432,-0.0551359,0.108736,-0.0235488,0.160839,-0.0235921,0.130644,0.249755,-0.174501,0.660882,-0.188212,0.336343,-0.0234002,-0.314065,-0.0578333,-0.0288995
0.012016,-0.145594,0.260368,0.161953,-0.0410283,-0.0308354,0.0257433,0.0997987,0.0951171,-0.0136044,0.0629655,-0.0141109,-0.0373124,0.0366562,0.0311118,-0.0100953,0.0195504,0.0619057,0.0256264,0.0707663,-0.0587265,-0.0818015,-0.120899,0.590816,0.0404745,-0.0952724
0.012354,-0.14101,0.266184,0.159723,-0.0398485,-0.0235382,0.0253274,0.0887945,0.0836739,-0.00996625,0.0602105,-0.0199019,-0.00972722,0.0253291,0.0129431,-0.00346812,0.000956719,0.0593867,0.0588175,0.0642011,-0.0571741,-0.0588312,-0.0842617,0.479833,0.0492917,-0.0180675
0.034586,-0.158295,0.258629,0.1825,0.00439052,-0.0185452,0.0636319,0.15044,0.106973,-0.0558584,0.138647,-0.21128,0.347897,-0.0260254,0.0389489,0.00700083,-0.0407412,-0.122227,0.0791289,-0.261658,0.0109042,-0.00920274,0.0587214,-0.334126,-0.0827888,0.0607955
