0.0906793,-0.133738,0.983838,0.0266354,-0.00652217,-0.0147774,0.0175992,-0.0648214,0.0100716,-0.015306,-0.00868428,0.00884653,-0.00386822,0.00380077
0.0330205,-0.0580223,0.0403935,0.0379154,0.24399,-0.197587,0.0508234,0.890457,0.264593,-0.0624547,0.086586,0.132482,0.00987588,-0.00233462
-0.000195237,0.0701837,0.033097,-0.232375,-0.368235,0.0915377,-0.0536223,0.0859333,0.0732198,0.248929,0.816331,-0.206354,-0.0833697,0.00346022
0.093439,-0.12948,-0.0428547,0.408293,0.657257,-0.16065,0.126193,-0.196137,-0.25308,0.0100502,0.445123,-0.139147,-0.107343,0.0204622
-0.105971,-0.108982,-0.022124,-0.1469,-0.0170118,-0.184027,-0.0465641,-0.18042,-0.0613704,-0.212288,0.300344,0.829542,0.22719,0.0797845
-0.569346,-0.152774,0.0381211,-0.0851834,0.35893,0.589942,-0.0123665,-0.0687367,0.372786,0.109968,0.0331943,0.0687719,-0.0482421,0.00335529
-0.133219,0.705203,0.109928,0.374969,-0.0442827,0.267548,0.0327989,0.145515,-0.236765,-0.0334382,0.0401644,0.125387,0.095935,0.284752
0.34601,0.40463,0.0150862,-0.401623,0.325882,-0.15315,-0.00204508,-0.191782,0.347242,0.138232,-0.0595521,0.112675,-0.36945,0.0836456
0.421187,-0.135328,-0.0293887,-0.385461,0.232676,0.384317,-0.00450108,0.0948491,-0.229675,-0.00596763,-0.00218093,-0.110425,0.493981,0.367386
0.342279,-0.356641,-0.0747545,0.178298,-0.160428,0.405821,0.00387141,0.125201,-0.197722,0.00112977,-0.0276112,0.240447,-0.428577,-0.175953
0.150995,-0.23521,-0.0696458,0.381406,-0.197495,-0.0538259,0.0031646,-0.104567,0.414452,0.205436,-0.0291183,0.062646,-0.0541905,0.699157
0.0440219,-0.0827675,-0.0296889,0.199954,-0.0297248,-0.154188,0.0176132,-0.107953,0.310701,0.131757,0.0111099,-0.144451,0.56206,-0.271381
0.279223,0.133721,-0.00352991,0.22909,0.0718287,0.183837,-0.765799,-0.0473172,0.239854,-0.236272,0.0940678,0.0221777,0.0701682,-0.205248
0.182994,0.119448,0.00909814,0.126518,0.047073,0.101147,0.105474,0.0205709,-0.0452738,0.753917,-0.0739214,0.320722,0.157118,-0.301583
0.279927,0.144821,-0.0310768,0.11001,-0.0917754,0.257934,0.613985,-0.108982,0.348394,-0.415449,0.124007,0.0313924,0.0749843,-0.208839
