0.0668864,0.152398,0.981981,0.0343701,0.0241147,-0.0123224,-0.0516699,-0.00880136,0.0352971,0.0103516,-0.0122047,0.0201426,0.0116363,0.0273038,-0.0218116,-0.000476445,-0.00416471
0.0253185,0.0615829,0.0401043,0.0320394,0.00504587,0.277629,0.224528,0.451486,-0.334475,-0.610712,0.158475,-0.1899,0.143539,-0.269103,0.139714,0.0475812,-0.00132908
0.00303839,-0.066397,0.0349565,-0.236788,-0.123,-0.350505,-0.0435966,0.0682406,-0.0611514,-0.00999502,0.0719317,-0.102353,-0.180258,0.215097,0.829548,-0.0623161,-0.0569666
0.0724749,0.138913,-0.0455901,0.402154,0.237026,0.608562,0.0776677,0.0107165,0.159015,0.157863,-0.0268621,-0.150234,-0.0197133,0.451852,0.286774,-0.0936715,-0.0986222
-0.104267,0.0944635,-0.0240138,-0.131254,0.0300481,0.0198435,-0.380488,0.0353251,0.0332295,0.0371904,-0.125956,-0.359146,0.362267,0.0795326,0.0278178,0.356894,0.161652
-0.503572,0.0590251,0.0298535,0.0142005,0.378993,-0.0688626,0.337783,-0.0245324,-0.0382043,-0.0300736,0.199281,0.406556,-0.181148,0.0270955,0.0376751,0.0502523,-0.0654076
-0.0642983,-0.713977,0.115365,0.341791,0.0580995,-0.140651,0.253685,-0.08981,-0.0133773,-0.00152126,-0.0662157,-0.198849,0.122689,0.0344515,0.0288831,0.1625,0.137355
0.310453,-0.324875,0.0222515,-0.439398,0.270264,0.293954,-0.250467,0.0977162,0.0342727,-0.0333499,0.0828818,0.284671,-0.0925348,0.0393494,-0.0163843,0.253603,-0.32378
0.341289,0.210256,-0.0291897,-0.387046,0.339382,-0.0150117,0.376419,-0.121807,-0.0290571,0.0725604,-0.0351943,-0.0963798,-0.0018649,0.0290007,0.0018061,-0.0808413,0.516655
0.27128,0.398829,-0.0789518,0.17032,0.0976861,-0.332349,0.273392,-0.105959,-0.0247386,0.0213284,-0.0511217,-0.163771,0.0895455,-0.01302,-0.0340757,0.274046,-0.405241
0.120559,0.244753,-0.0730467,0.366751,-0.0824655,-0.161709,-0.267339,0.128754,0.0176849,-0.0995429,0.0873623,0.298633,-0.128224,-0.024142,0.0711416,0.253988,0.0176501
0.0359248,0.0833071,-0.0309649,0.191886,-0.0526178,0.0303915,-0.23378,0.126208,0.0314404,-0.0635077,0.0838037,0.230307,-0.132676,0.0275373,0.0490625,-0.0533756,0.588422
0.244713,-0.0838891,-0.00202527,0.186847,0.175305,-0.0514656,-0.113948,-0.0562714,-0.656969,0.387722,0.310872,0.15429,0.258304,-0.0234544,0.0632883,0.0358482,0.052366
0.16254,-0.0857525,0.010731,0.0992928,0.103321,-0.0156202,0.0217353,0.00563188,0.089011,0.00100382,0.171249,-0.291168,-0.625935,-0.0779401,-0.0863352,0.479148,0.144678
0.24569,-0.0938687,-0.028732,0.070502,0.120004,-0.197676,0.0385761,-0.00709613,0.558262,-0.235077,0.471492,0.130338,0.417238,0.0810057,0.0325332,-0.0306398,0.0457024
0.193441,-0.0782194,-0.0166734,0.0901103,0.110026,-0.0871455,0.103477,0.0849546,-0.0348995,-0.207755,-0.704299,0.387182,0.102134,0.123679,0.109882,0.197581,0.0887338
-0.484223,0.136861,-0.000703963,-0.117051,0.317264,-0.0330011,-0.113914,0.0157644,0.00333409,0.0133705,0.0287524,-0.040867,0.215193,0.0980546,0.0557238,0.385801,0.10775
-0.0129104,0.0462079,0.0281227,-0.153973,-0.630948,0.27272,0.371252,-0.141708,-0.00625221,0.128515,0.159051,0.233736,0.133146,0.158409,0.0554067,0.437094,0.098543
-0.00407494,0.0224433,0.00894497,0.0769267,0.0733589,0.201292,0.0158692,-0.150686,0.257399,0.259777,-0.109314,0.0742368,0.0882942,-0.775252,0.397785,0.0685708,0.0140983
-0.00368106,-0.0274898,0.00761099,-0.0367059,-0.0280493,-0.12223,0.183736,0.812265,0.180195,0.49589,-0.0334551,-0.00222439,0.042189,-0.00692416,-0.0931979,0.00485125,-0.00623924
